simulation/qsim/relogio.msim.vcd
$comment
	File created using the following command:
		vcd file relogio.msim.vcd -direction
$end
$date
	Thu Sep 27 20:13:42 2018
$end
$version
	ModelSim Version 10.4d
$end
$timescale
	1ps
$end

$scope module diagrama_de_blocos_relogio_vlg_vec_tst $end
$var reg 1 ! CLK $end
$var reg 4 " v_1 [3:0] $end
$var reg 4 # v_2 [3:0] $end
$var reg 4 $ v_4 [3:0] $end
$var reg 4 % v_6 [3:0] $end
$var reg 4 & v_9 [3:0] $end
$var reg 4 ' v_dez [3:0] $end
$var wire 1 ( comp_out_DH $end
$var wire 1 ) comp_out_DM $end
$var wire 1 * comp_out_DS $end
$var wire 1 + comp_out_UH $end
$var wire 1 , comp_out_UM $end
$var wire 1 - comp_out_US $end
$var wire 1 . out_mux_reg [3] $end
$var wire 1 / out_mux_reg [2] $end
$var wire 1 0 out_mux_reg [1] $end
$var wire 1 1 out_mux_reg [0] $end
$var wire 1 2 out_ula [3] $end
$var wire 1 3 out_ula [2] $end
$var wire 1 4 out_ula [1] $end
$var wire 1 5 out_ula [0] $end
$var wire 1 6 palavra_out [12] $end
$var wire 1 7 palavra_out [11] $end
$var wire 1 8 palavra_out [10] $end
$var wire 1 9 palavra_out [9] $end
$var wire 1 : palavra_out [8] $end
$var wire 1 ; palavra_out [7] $end
$var wire 1 < palavra_out [6] $end
$var wire 1 = palavra_out [5] $end
$var wire 1 > palavra_out [4] $end
$var wire 1 ? palavra_out [3] $end
$var wire 1 @ palavra_out [2] $end
$var wire 1 A palavra_out [1] $end
$var wire 1 B palavra_out [0] $end
$var wire 1 C reg_dh [3] $end
$var wire 1 D reg_dh [2] $end
$var wire 1 E reg_dh [1] $end
$var wire 1 F reg_dh [0] $end
$var wire 1 G reg_DH_enable $end
$var wire 1 H reg_dm [3] $end
$var wire 1 I reg_dm [2] $end
$var wire 1 J reg_dm [1] $end
$var wire 1 K reg_dm [0] $end
$var wire 1 L reg_DM_enable $end
$var wire 1 M reg_ds [3] $end
$var wire 1 N reg_ds [2] $end
$var wire 1 O reg_ds [1] $end
$var wire 1 P reg_ds [0] $end
$var wire 1 Q reg_DS_enable $end
$var wire 1 R reg_uh [3] $end
$var wire 1 S reg_uh [2] $end
$var wire 1 T reg_uh [1] $end
$var wire 1 U reg_uh [0] $end
$var wire 1 V reg_UH_enable $end
$var wire 1 W reg_um [3] $end
$var wire 1 X reg_um [2] $end
$var wire 1 Y reg_um [1] $end
$var wire 1 Z reg_um [0] $end
$var wire 1 [ reg_UM_enable $end
$var wire 1 \ reg_us [3] $end
$var wire 1 ] reg_us [2] $end
$var wire 1 ^ reg_us [1] $end
$var wire 1 _ reg_us [0] $end
$var wire 1 ` reg_US_enable $end

$scope module i1 $end
$var wire 1 a gnd $end
$var wire 1 b vcc $end
$var wire 1 c unknown $end
$var tri1 1 d devclrn $end
$var tri1 1 e devpor $end
$var tri1 1 f devoe $end
$var wire 1 g ~QUARTUS_CREATED_GND~I_combout $end
$var wire 1 h CLK~input_o $end
$var wire 1 i CLK~inputCLKENA0_outclk $end
$var wire 1 j v_6[3]~input_o $end
$var wire 1 k v_dez[3]~input_o $end
$var wire 1 l v_dez[2]~input_o $end
$var wire 1 m v_6[1]~input_o $end
$var wire 1 n ROM|fstate.incrementa_DS_parteII~DUPLICATE_q $end
$var wire 1 o ROM|WideOr9~combout $end
$var wire 1 p v_4[3]~input_o $end
$var wire 1 q v_4[2]~input_o $end
$var wire 1 r v_2[3]~input_o $end
$var wire 1 s ROM|fstate.incrementa_DH_parte_II~q $end
$var wire 1 t v_dez[0]~input_o $end
$var wire 1 u v_9[0]~input_o $end
$var wire 1 v v_2[0]~input_o $end
$var wire 1 w v_6[0]~input_o $end
$var wire 1 x v_1[0]~input_o $end
$var wire 1 y v_4[0]~input_o $end
$var wire 1 z ROM|reg_fstate~3_combout $end
$var wire 1 { ROM|fstate.zera_DS~q $end
$var wire 1 | ROM|fstate.incrementa_DH_parte_II~DUPLICATE_q $end
$var wire 1 } ROM|fstate.zera_DH~0_combout $end
$var wire 1 ~ ROM|fstate.zera_DH~q $end
$var wire 1 !! ROM|WideOr10~0_combout $end
$var wire 1 "! mux_das_constantes|Mux3~0_combout $end
$var wire 1 #! mux_das_constantes|Mux3~1_combout $end
$var wire 1 $! inst|Add0~18_cout $end
$var wire 1 %! inst|Add0~13_sumout $end
$var wire 1 &! inst|RESULT~3_combout $end
$var wire 1 '! inst|Mux1~0_combout $end
$var wire 1 (! v_2[2]~input_o $end
$var wire 1 )! v_2[1]~input_o $end
$var wire 1 *! comp_DH|eq~0_combout $end
$var wire 1 +! ROM|Selector4~0_combout $end
$var wire 1 ,! ROM|fstate.conta_hora~q $end
$var wire 1 -! v_4[1]~input_o $end
$var wire 1 .! comp_UH|eq~0_combout $end
$var wire 1 /! ROM|reg_fstate~4_combout $end
$var wire 1 0! ROM|fstate.incrementa_DH_parte_I~q $end
$var wire 1 1! ROM|WideOr8~combout $end
$var wire 1 2! mux_das_constantes|Mux0~0_combout $end
$var wire 1 3! v_9[2]~input_o $end
$var wire 1 4! v_6[2]~input_o $end
$var wire 1 5! v_1[2]~input_o $end
$var wire 1 6! mux_das_constantes|Mux1~0_combout $end
$var wire 1 7! mux_das_constantes|Mux1~1_combout $end
$var wire 1 8! inst|Add0~14 $end
$var wire 1 9! inst|Add0~10 $end
$var wire 1 :! inst|Add0~5_sumout $end
$var wire 1 ;! inst|RESULT~1_combout $end
$var wire 1 <! comp_UH|eq~1_combout $end
$var wire 1 =! v_dez[1]~input_o $end
$var wire 1 >! comp_UM|eq~0_combout $end
$var wire 1 ?! comp_UM|eq~1_combout $end
$var wire 1 @! ROM|fstate.incrementa_DS_parteII~q $end
$var wire 1 A! comp_DM|eq~1_combout $end
$var wire 1 B! ROM|WideOr7~0_combout $end
$var wire 1 C! ROM|Selector0~0_combout $end
$var wire 1 D! ROM|fstate.conta_segundo~q $end
$var wire 1 E! ROM|reg_fstate~0_combout $end
$var wire 1 F! ROM|fstate.Incrementa_DS_parte_I~q $end
$var wire 1 G! mux_das_constantes|Mux0~1_combout $end
$var wire 1 H! v_9[1]~input_o $end
$var wire 1 I! v_1[1]~input_o $end
$var wire 1 J! mux_das_constantes|Mux2~0_combout $end
$var wire 1 K! mux_das_constantes|Mux2~1_combout $end
$var wire 1 L! inst|Add0~9_sumout $end
$var wire 1 M! inst|RESULT~2_combout $end
$var wire 1 N! comp_DM|eq~0_combout $end
$var wire 1 O! ROM|Selector2~0_combout $end
$var wire 1 P! ROM|fstate.conta_minuto~q $end
$var wire 1 Q! ROM|reg_fstate~1_combout $end
$var wire 1 R! ROM|fstate.incrementa_DM_parte_I~q $end
$var wire 1 S! ROM|fstate.incrementa_DM_parte_II~q $end
$var wire 1 T! ROM|reg_fstate~2_combout $end
$var wire 1 U! ROM|fstate.zera_DM~q $end
$var wire 1 V! ROM|WideOr9~0_combout $end
$var wire 1 W! v_9[3]~input_o $end
$var wire 1 X! v_1[3]~input_o $end
$var wire 1 Y! mux_das_constantes|Mux0~2_combout $end
$var wire 1 Z! mux_das_constantes|Mux0~3_combout $end
$var wire 1 [! inst|Add0~6 $end
$var wire 1 \! inst|Add0~1_sumout $end
$var wire 1 ]! inst|RESULT~0_combout $end
$var wire 1 ^! comp_DH|eq~1_combout $end
$var wire 1 _! inst|Mux1~1_combout $end
$var wire 1 `! inst|Mux2~0_combout $end
$var wire 1 a! inst|Mux3~0_combout $end
$var wire 1 b! inst|Mux4~0_combout $end
$var wire 1 c! ROM|WideOr7~combout $end
$var wire 1 d! ROM|palavra~0_combout $end
$var wire 1 e! ROM|WideOr10~1_combout $end
$var wire 1 f! ROM|WideOr12~combout $end
$var wire 1 g! ROM|WideOr14~combout $end
$var wire 1 h! DH|q [3] $end
$var wire 1 i! DH|q [2] $end
$var wire 1 j! DH|q [1] $end
$var wire 1 k! DH|q [0] $end
$upscope $end
$upscope $end
$enddefinitions $end
#0
$dumpvars
0!
b1 "
b10 #
b100 $
b110 %
b1001 &
b1010 '
0(
0)
0*
0+
0,
0-
01
00
0/
0.
15
04
03
02
0B
0A
0@
0?
0>
0=
0<
0;
0:
09
08
07
06
0F
0E
0D
0C
1G
0K
0J
0I
0H
1L
0P
0O
0N
0M
1Q
0U
0T
0S
0R
1V
0Z
0Y
0X
0W
1[
0_
0^
0]
0\
1`
0a
1b
xc
1d
1e
1f
0g
0h
0i
0j
1k
0l
1m
0n
0o
0p
1q
0r
0s
0t
1u
0v
0w
1x
0y
0z
0{
0|
0}
0~
1!!
1"!
1#!
0$!
1%!
0&!
0'!
0(!
1)!
0*!
0+!
0,!
0-!
1.!
0/!
00!
01!
02!
03!
14!
05!
06!
07!
08!
09!
0:!
1;!
0<!
1=!
0>!
0?!
0@!
0A!
0B!
0C!
0D!
0E!
0F!
0G!
0H!
0I!
0J!
0K!
0L!
1M!
0N!
0O!
0P!
0Q!
0R!
0S!
0T!
0U!
1V!
1W!
0X!
0Y!
0Z!
0[!
0\!
1]!
0^!
0_!
0`!
0a!
1b!
1c!
1d!
1e!
0f!
0g!
0k!
0j!
0i!
0h!
$end
#10000
1!
1h
1i
1k!
11
1F
1K
1P
1U
1Z
1_
0.!
1&!
18!
0%!
1L!
0b!
05
1a!
14
#20000
0!
0h
0i
#30000
1!
1h
1i
1j!
0k!
01
0F
0K
0P
0U
0Z
0_
10
1E
1J
1O
1T
1Y
1^
1>!
1*!
0&!
08!
0M!
19!
1%!
0L!
09!
1L!
1:!
0a!
1b!
1^!
1(
15
04
0:!
1`!
1a!
14
13
0`!
03
#40000
0!
0h
0i
#50000
1!
1h
1i
1k!
11
1F
1K
1P
1U
1Z
1_
0>!
0*!
1&!
18!
0%!
19!
0L!
0b!
0^!
0(
05
1:!
0a!
04
1`!
13
#60000
0!
0h
0i
#70000
1!
1h
1i
0j!
1i!
0k!
01
0F
0K
0P
0U
0Z
0_
1/
1D
1I
1N
1S
1X
1]
00
0E
0J
0O
0T
0Y
0^
1.!
0&!
08!
0;!
1[!
1M!
09!
1%!
0:!
1L!
0[!
0L!
1\!
1:!
1a!
0`!
1b!
1<!
1+
15
03
14
0\!
1`!
1_!
0a!
04
12
13
0_!
02
#80000
0!
0h
0i
#90000
1!
1h
1i
1k!
11
1F
1K
1P
1U
1Z
1_
0.!
1&!
18!
0%!
1L!
0b!
0<!
0+
05
1a!
14
#100000
0!
0h
0i
#110000
1!
1h
1i
1j!
0k!
01
0F
0K
0P
0U
0Z
0_
10
1E
1J
1O
1T
1Y
1^
1N!
1>!
0&!
08!
0M!
19!
1%!
0L!
09!
1[!
1L!
0:!
0a!
1b!
1A!
1)
1*
15
04
0[!
1:!
1\!
0`!
1a!
14
03
0\!
1_!
1`!
13
12
0_!
02
#120000
0!
0h
0i
#130000
1!
1h
1i
1k!
11
1F
1K
1P
1U
1Z
1_
0N!
0>!
1&!
18!
0%!
19!
0L!
0b!
0A!
0)
0*
05
1[!
0:!
0a!
04
1\!
0`!
03
1_!
12
#140000
0!
0h
0i
#150000
1!
1h
1i
1h!
0j!
0i!
0k!
01
0F
0K
0P
0U
0Z
0_
0/
0D
0I
0N
0S
0X
0]
00
0E
0J
0O
0T
0Y
0^
1.
1C
1H
1M
1R
1W
1\
1.!
0&!
08!
1;!
0[!
1M!
09!
0]!
1%!
1:!
1L!
0\!
0L!
1\!
0:!
0_!
1a!
1`!
1b!
15
13
14
02
0`!
1_!
0a!
04
12
03
#160000
0!
0h
0i
#170000
1!
1h
1i
1k!
11
1F
1K
1P
1U
1Z
1_
0.!
1&!
18!
0%!
1L!
0b!
05
1a!
14
#180000
0!
0h
0i
#190000
1!
1h
1i
1j!
0k!
01
0F
0K
0P
0U
0Z
0_
10
1E
1J
1O
1T
1Y
1^
1>!
1*!
0&!
08!
0M!
19!
1%!
0L!
09!
1L!
1:!
0a!
1b!
1E!
1?!
1,
1-
15
04
0:!
1C!
1`!
1a!
14
13
0`!
03
#200000
0!
0h
0i
#210000
1!
1h
1i
1F!
1D!
1k!
11
1F
1K
1P
1U
1Z
1_
1B!
0d!
0>!
0*!
1&!
18!
0E!
0%!
1=
19!
0c!
0L!
0b!
0?!
1f!
1?
0,
0-
05
18
1:!
0a!
04
1`!
13
#220000
0!
0h
0i
#230000
1!
1h
1i
0F!
1@!
1n
0j!
1i!
0k!
01
0F
0K
0P
0U
0Z
0_
1/
1D
1I
1N
1S
1X
1]
00
0E
0J
0O
0T
0Y
0^
1c!
1d!
1'!
1.!
0&!
08!
0;!
1[!
1M!
09!
1o
1g!
0C!
1%!
0:!
1L!
1B
1;
0=
08
0[!
16!
0"!
0L!
0\!
1:!
1a!
0`!
0_!
0f!
0?
02
03
14
1&!
0#!
1;!
17!
1\!
1[!
0:!
1`!
0%!
1b!
15
13
0\!
#240000
0!
0h
0i
#250000
1!
1h
1i
0D!
0@!
0n
0h!
1j!
1k!
11
1F
1K
1P
1U
1Z
1_
10
1E
1J
1O
1T
1Y
1^
0.
0C
0H
0M
0R
0W
0\
0c!
0B!
0'!
0.!
0&!
0M!
1]!
0o
0g!
1C!
1%!
1L!
1\!
1<!
1+
0B
0;
18
1c!
06!
1"!
1_!
0<!
0`!
0C!
03
0+
12
08
1&!
1#!
0;!
07!
0[!
18!
1:!
0%!
19!
0\!
0L!
0b!
1`!
13
05
1[!
0:!
0a!
0_!
02
04
1\!
0`!
03
1_!
12
#260000
0!
0h
0i
#270000
1!
1h
1i
1h!
0j!
0i!
0k!
01
0F
0K
0P
0U
0Z
0_
0/
0D
0I
0N
0S
0X
0]
00
0E
0J
0O
0T
0Y
0^
1.
1C
1H
1M
1R
1W
1\
1.!
0&!
08!
1;!
0[!
1M!
09!
0]!
1%!
1:!
1L!
0\!
0L!
1\!
0:!
0_!
1a!
1`!
1b!
15
13
14
02
0`!
1_!
0a!
04
12
03
#280000
0!
0h
0i
#290000
1!
1h
1i
1k!
11
1F
1K
1P
1U
1Z
1_
0.!
1&!
18!
0%!
1L!
0b!
05
1a!
14
#300000
0!
0h
0i
#310000
1!
1h
1i
1j!
0k!
01
0F
0K
0P
0U
0Z
0_
10
1E
1J
1O
1T
1Y
1^
1>!
1*!
0&!
08!
0M!
19!
1%!
0L!
09!
1L!
1:!
0a!
1b!
1E!
1?!
1,
1-
15
04
0:!
1C!
1`!
1a!
14
13
0`!
03
#320000
0!
0h
0i
#330000
1!
1h
1i
1F!
1D!
1k!
11
1F
1K
1P
1U
1Z
1_
1B!
0d!
0>!
0*!
1&!
18!
0E!
0%!
1=
19!
0c!
0L!
0b!
0?!
1f!
1?
0,
0-
05
18
1:!
0a!
04
1`!
13
#340000
0!
0h
0i
#350000
1!
1h
1i
0F!
1@!
1n
0j!
1i!
0k!
01
0F
0K
0P
0U
0Z
0_
1/
1D
1I
1N
1S
1X
1]
00
0E
0J
0O
0T
0Y
0^
1c!
1d!
1'!
1.!
0&!
08!
0;!
1[!
1M!
09!
1o
1g!
0C!
1%!
0:!
1L!
1B
1;
0=
08
0[!
16!
0"!
0L!
0\!
1:!
1a!
0`!
0_!
0f!
0?
02
03
14
1&!
0#!
1;!
17!
1\!
1[!
0:!
1`!
0%!
1b!
15
13
0\!
#360000
0!
0h
0i
#370000
1!
1h
1i
0D!
0@!
0n
0h!
1j!
1k!
11
1F
1K
1P
1U
1Z
1_
10
1E
1J
1O
1T
1Y
1^
0.
0C
0H
0M
0R
0W
0\
0c!
0B!
0'!
0.!
0&!
0M!
1]!
0o
0g!
1C!
1%!
1L!
1\!
1<!
1+
0B
0;
18
1c!
06!
1"!
1_!
0<!
0`!
0C!
03
0+
12
08
1&!
1#!
0;!
07!
0[!
18!
1:!
0%!
19!
0\!
0L!
0b!
1`!
13
05
1[!
0:!
0a!
0_!
02
04
1\!
0`!
03
1_!
12
#380000
0!
0h
0i
#390000
1!
1h
1i
1h!
0j!
0i!
0k!
01
0F
0K
0P
0U
0Z
0_
0/
0D
0I
0N
0S
0X
0]
00
0E
0J
0O
0T
0Y
0^
1.
1C
1H
1M
1R
1W
1\
1.!
0&!
08!
1;!
0[!
1M!
09!
0]!
1%!
1:!
1L!
0\!
0L!
1\!
0:!
0_!
1a!
1`!
1b!
15
13
14
02
0`!
1_!
0a!
04
12
03
#400000
0!
0h
0i
#410000
1!
1h
1i
1k!
11
1F
1K
1P
1U
1Z
1_
0.!
1&!
18!
0%!
1L!
0b!
05
1a!
14
#420000
0!
0h
0i
#430000
1!
1h
1i
1j!
0k!
01
0F
0K
0P
0U
0Z
0_
10
1E
1J
1O
1T
1Y
1^
1>!
1*!
0&!
08!
0M!
19!
1%!
0L!
09!
1L!
1:!
0a!
1b!
1E!
1?!
1,
1-
15
04
0:!
1C!
1`!
1a!
14
13
0`!
03
#440000
0!
0h
0i
#450000
1!
1h
1i
1F!
1D!
1k!
11
1F
1K
1P
1U
1Z
1_
1B!
0d!
0>!
0*!
1&!
18!
0E!
0%!
1=
19!
0c!
0L!
0b!
0?!
1f!
1?
0,
0-
05
18
1:!
0a!
04
1`!
13
#460000
0!
0h
0i
#470000
1!
1h
1i
0F!
1@!
1n
0j!
1i!
0k!
01
0F
0K
0P
0U
0Z
0_
1/
1D
1I
1N
1S
1X
1]
00
0E
0J
0O
0T
0Y
0^
1c!
1d!
1'!
1.!
0&!
08!
0;!
1[!
1M!
09!
1o
1g!
0C!
1%!
0:!
1L!
1B
1;
0=
08
0[!
16!
0"!
0L!
0\!
1:!
1a!
0`!
0_!
0f!
0?
02
03
14
1&!
0#!
1;!
17!
1\!
1[!
0:!
1`!
0%!
1b!
15
13
0\!
#480000
0!
0h
0i
#490000
1!
1h
1i
0D!
0@!
0n
0h!
1j!
1k!
11
1F
1K
1P
1U
1Z
1_
10
1E
1J
1O
1T
1Y
1^
0.
0C
0H
0M
0R
0W
0\
0c!
0B!
0'!
0.!
0&!
0M!
1]!
0o
0g!
1C!
1%!
1L!
1\!
1<!
1+
0B
0;
18
1c!
06!
1"!
1_!
0<!
0`!
0C!
03
0+
12
08
1&!
1#!
0;!
07!
0[!
18!
1:!
0%!
19!
0\!
0L!
0b!
1`!
13
05
1[!
0:!
0a!
0_!
02
04
1\!
0`!
03
1_!
12
#500000
0!
0h
0i
#510000
1!
1h
1i
1h!
0j!
0i!
0k!
01
0F
0K
0P
0U
0Z
0_
0/
0D
0I
0N
0S
0X
0]
00
0E
0J
0O
0T
0Y
0^
1.
1C
1H
1M
1R
1W
1\
1.!
0&!
08!
1;!
0[!
1M!
09!
0]!
1%!
1:!
1L!
0\!
0L!
1\!
0:!
0_!
1a!
1`!
1b!
15
13
14
02
0`!
1_!
0a!
04
12
03
#520000
0!
0h
0i
#530000
1!
1h
1i
1k!
11
1F
1K
1P
1U
1Z
1_
0.!
1&!
18!
0%!
1L!
0b!
05
1a!
14
#540000
0!
0h
0i
#550000
1!
1h
1i
1j!
0k!
01
0F
0K
0P
0U
0Z
0_
10
1E
1J
1O
1T
1Y
1^
1>!
1*!
0&!
08!
0M!
19!
1%!
0L!
09!
1L!
1:!
0a!
1b!
1E!
1?!
1,
1-
15
04
0:!
1C!
1`!
1a!
14
13
0`!
03
#560000
0!
0h
0i
#570000
1!
1h
1i
1F!
1D!
1k!
11
1F
1K
1P
1U
1Z
1_
1B!
0d!
0>!
0*!
1&!
18!
0E!
0%!
1=
19!
0c!
0L!
0b!
0?!
1f!
1?
0,
0-
05
18
1:!
0a!
04
1`!
13
#580000
0!
0h
0i
#590000
1!
1h
1i
0F!
1@!
1n
0j!
1i!
0k!
01
0F
0K
0P
0U
0Z
0_
1/
1D
1I
1N
1S
1X
1]
00
0E
0J
0O
0T
0Y
0^
1c!
1d!
1'!
1.!
0&!
08!
0;!
1[!
1M!
09!
1o
1g!
0C!
1%!
0:!
1L!
1B
1;
0=
08
0[!
16!
0"!
0L!
0\!
1:!
1a!
0`!
0_!
0f!
0?
02
03
14
1&!
0#!
1;!
17!
1\!
1[!
0:!
1`!
0%!
1b!
15
13
0\!
#600000
0!
0h
0i
#610000
1!
1h
1i
0D!
0@!
0n
0h!
1j!
1k!
11
1F
1K
1P
1U
1Z
1_
10
1E
1J
1O
1T
1Y
1^
0.
0C
0H
0M
0R
0W
0\
0c!
0B!
0'!
0.!
0&!
0M!
1]!
0o
0g!
1C!
1%!
1L!
1\!
1<!
1+
0B
0;
18
1c!
06!
1"!
1_!
0<!
0`!
0C!
03
0+
12
08
1&!
1#!
0;!
07!
0[!
18!
1:!
0%!
19!
0\!
0L!
0b!
1`!
13
05
1[!
0:!
0a!
0_!
02
04
1\!
0`!
03
1_!
12
#620000
0!
0h
0i
#630000
1!
1h
1i
1h!
0j!
0i!
0k!
01
0F
0K
0P
0U
0Z
0_
0/
0D
0I
0N
0S
0X
0]
00
0E
0J
0O
0T
0Y
0^
1.
1C
1H
1M
1R
1W
1\
1.!
0&!
08!
1;!
0[!
1M!
09!
0]!
1%!
1:!
1L!
0\!
0L!
1\!
0:!
0_!
1a!
1`!
1b!
15
13
14
02
0`!
1_!
0a!
04
12
03
#640000
0!
0h
0i
#650000
1!
1h
1i
1k!
11
1F
1K
1P
1U
1Z
1_
0.!
1&!
18!
0%!
1L!
0b!
05
1a!
14
#660000
0!
0h
0i
#670000
1!
1h
1i
1j!
0k!
01
0F
0K
0P
0U
0Z
0_
10
1E
1J
1O
1T
1Y
1^
1>!
1*!
0&!
08!
0M!
19!
1%!
0L!
09!
1L!
1:!
0a!
1b!
1E!
1?!
1,
1-
15
04
0:!
1C!
1`!
1a!
14
13
0`!
03
#680000
0!
0h
0i
#690000
1!
1h
1i
1F!
1D!
1k!
11
1F
1K
1P
1U
1Z
1_
1B!
0d!
0>!
0*!
1&!
18!
0E!
0%!
1=
19!
0c!
0L!
0b!
0?!
1f!
1?
0,
0-
05
18
1:!
0a!
04
1`!
13
#700000
0!
0h
0i
#710000
1!
1h
1i
0F!
1@!
1n
0j!
1i!
0k!
01
0F
0K
0P
0U
0Z
0_
1/
1D
1I
1N
1S
1X
1]
00
0E
0J
0O
0T
0Y
0^
1c!
1d!
1'!
1.!
0&!
08!
0;!
1[!
1M!
09!
1o
1g!
0C!
1%!
0:!
1L!
1B
1;
0=
08
0[!
16!
0"!
0L!
0\!
1:!
1a!
0`!
0_!
0f!
0?
02
03
14
1&!
0#!
1;!
17!
1\!
1[!
0:!
1`!
0%!
1b!
15
13
0\!
#720000
0!
0h
0i
#730000
1!
1h
1i
0D!
0@!
0n
0h!
1j!
1k!
11
1F
1K
1P
1U
1Z
1_
10
1E
1J
1O
1T
1Y
1^
0.
0C
0H
0M
0R
0W
0\
0c!
0B!
0'!
0.!
0&!
0M!
1]!
0o
0g!
1C!
1%!
1L!
1\!
1<!
1+
0B
0;
18
1c!
06!
1"!
1_!
0<!
0`!
0C!
03
0+
12
08
1&!
1#!
0;!
07!
0[!
18!
1:!
0%!
19!
0\!
0L!
0b!
1`!
13
05
1[!
0:!
0a!
0_!
02
04
1\!
0`!
03
1_!
12
#740000
0!
0h
0i
#750000
1!
1h
1i
1h!
0j!
0i!
0k!
01
0F
0K
0P
0U
0Z
0_
0/
0D
0I
0N
0S
0X
0]
00
0E
0J
0O
0T
0Y
0^
1.
1C
1H
1M
1R
1W
1\
1.!
0&!
08!
1;!
0[!
1M!
09!
0]!
1%!
1:!
1L!
0\!
0L!
1\!
0:!
0_!
1a!
1`!
1b!
15
13
14
02
0`!
1_!
0a!
04
12
03
#760000
0!
0h
0i
#770000
1!
1h
1i
1k!
11
1F
1K
1P
1U
1Z
1_
0.!
1&!
18!
0%!
1L!
0b!
05
1a!
14
#780000
0!
0h
0i
#790000
1!
1h
1i
1j!
0k!
01
0F
0K
0P
0U
0Z
0_
10
1E
1J
1O
1T
1Y
1^
1>!
1*!
0&!
08!
0M!
19!
1%!
0L!
09!
1L!
1:!
0a!
1b!
1E!
1?!
1,
1-
15
04
0:!
1C!
1`!
1a!
14
13
0`!
03
#800000
0!
0h
0i
#810000
1!
1h
1i
1F!
1D!
1k!
11
1F
1K
1P
1U
1Z
1_
1B!
0d!
0>!
0*!
1&!
18!
0E!
0%!
1=
19!
0c!
0L!
0b!
0?!
1f!
1?
0,
0-
05
18
1:!
0a!
04
1`!
13
#820000
0!
0h
0i
#830000
1!
1h
1i
0F!
1@!
1n
0j!
1i!
0k!
01
0F
0K
0P
0U
0Z
0_
1/
1D
1I
1N
1S
1X
1]
00
0E
0J
0O
0T
0Y
0^
1c!
1d!
1'!
1.!
0&!
08!
0;!
1[!
1M!
09!
1o
1g!
0C!
1%!
0:!
1L!
1B
1;
0=
08
0[!
16!
0"!
0L!
0\!
1:!
1a!
0`!
0_!
0f!
0?
02
03
14
1&!
0#!
1;!
17!
1\!
1[!
0:!
1`!
0%!
1b!
15
13
0\!
#840000
0!
0h
0i
#850000
1!
1h
1i
0D!
0@!
0n
0h!
1j!
1k!
11
1F
1K
1P
1U
1Z
1_
10
1E
1J
1O
1T
1Y
1^
0.
0C
0H
0M
0R
0W
0\
0c!
0B!
0'!
0.!
0&!
0M!
1]!
0o
0g!
1C!
1%!
1L!
1\!
1<!
1+
0B
0;
18
1c!
06!
1"!
1_!
0<!
0`!
0C!
03
0+
12
08
1&!
1#!
0;!
07!
0[!
18!
1:!
0%!
19!
0\!
0L!
0b!
1`!
13
05
1[!
0:!
0a!
0_!
02
04
1\!
0`!
03
1_!
12
#860000
0!
0h
0i
#870000
1!
1h
1i
1h!
0j!
0i!
0k!
01
0F
0K
0P
0U
0Z
0_
0/
0D
0I
0N
0S
0X
0]
00
0E
0J
0O
0T
0Y
0^
1.
1C
1H
1M
1R
1W
1\
1.!
0&!
08!
1;!
0[!
1M!
09!
0]!
1%!
1:!
1L!
0\!
0L!
1\!
0:!
0_!
1a!
1`!
1b!
15
13
14
02
0`!
1_!
0a!
04
12
03
#880000
0!
0h
0i
#890000
1!
1h
1i
1k!
11
1F
1K
1P
1U
1Z
1_
0.!
1&!
18!
0%!
1L!
0b!
05
1a!
14
#900000
0!
0h
0i
#910000
1!
1h
1i
1j!
0k!
01
0F
0K
0P
0U
0Z
0_
10
1E
1J
1O
1T
1Y
1^
1>!
1*!
0&!
08!
0M!
19!
1%!
0L!
09!
1L!
1:!
0a!
1b!
1E!
1?!
1,
1-
15
04
0:!
1C!
1`!
1a!
14
13
0`!
03
#920000
0!
0h
0i
#930000
1!
1h
1i
1F!
1D!
1k!
11
1F
1K
1P
1U
1Z
1_
1B!
0d!
0>!
0*!
1&!
18!
0E!
0%!
1=
19!
0c!
0L!
0b!
0?!
1f!
1?
0,
0-
05
18
1:!
0a!
04
1`!
13
#940000
0!
0h
0i
#950000
1!
1h
1i
0F!
1@!
1n
0j!
1i!
0k!
01
0F
0K
0P
0U
0Z
0_
1/
1D
1I
1N
1S
1X
1]
00
0E
0J
0O
0T
0Y
0^
1c!
1d!
1'!
1.!
0&!
08!
0;!
1[!
1M!
09!
1o
1g!
0C!
1%!
0:!
1L!
1B
1;
0=
08
0[!
16!
0"!
0L!
0\!
1:!
1a!
0`!
0_!
0f!
0?
02
03
14
1&!
0#!
1;!
17!
1\!
1[!
0:!
1`!
0%!
1b!
15
13
0\!
#960000
0!
0h
0i
#970000
1!
1h
1i
0D!
0@!
0n
0h!
1j!
1k!
11
1F
1K
1P
1U
1Z
1_
10
1E
1J
1O
1T
1Y
1^
0.
0C
0H
0M
0R
0W
0\
0c!
0B!
0'!
0.!
0&!
0M!
1]!
0o
0g!
1C!
1%!
1L!
1\!
1<!
1+
0B
0;
18
1c!
06!
1"!
1_!
0<!
0`!
0C!
03
0+
12
08
1&!
1#!
0;!
07!
0[!
18!
1:!
0%!
19!
0\!
0L!
0b!
1`!
13
05
1[!
0:!
0a!
0_!
02
04
1\!
0`!
03
1_!
12
#980000
0!
0h
0i
#990000
1!
1h
1i
1h!
0j!
0i!
0k!
01
0F
0K
0P
0U
0Z
0_
0/
0D
0I
0N
0S
0X
0]
00
0E
0J
0O
0T
0Y
0^
1.
1C
1H
1M
1R
1W
1\
1.!
0&!
08!
1;!
0[!
1M!
09!
0]!
1%!
1:!
1L!
0\!
0L!
1\!
0:!
0_!
1a!
1`!
1b!
15
13
14
02
0`!
1_!
0a!
04
12
03
