simulation/qsim/relogio.msim.vcd
$comment
	File created using the following command:
		vcd file relogio.msim.vcd -direction
$end
$date
	Thu Sep 27 18:38:20 2018
$end
$version
	ModelSim Version 10.4d
$end
$timescale
	1ps
$end

$scope module diagrama_de_blocos_relogio_vlg_vec_tst $end
$var reg 1 ! CLK $end
$var reg 4 " v_1 [3:0] $end
$var reg 4 # v_2 [3:0] $end
$var reg 4 $ v_4 [3:0] $end
$var reg 4 % v_6 [3:0] $end
$var reg 4 & v_9 [3:0] $end
$var reg 4 ' v_dez [3:0] $end
$var wire 1 ( out_mux_reg [3] $end
$var wire 1 ) out_mux_reg [2] $end
$var wire 1 * out_mux_reg [1] $end
$var wire 1 + out_mux_reg [0] $end
$var wire 1 , out_ula [3] $end
$var wire 1 - out_ula [2] $end
$var wire 1 . out_ula [1] $end
$var wire 1 / out_ula [0] $end
$var wire 1 0 reg_dh [3] $end
$var wire 1 1 reg_dh [2] $end
$var wire 1 2 reg_dh [1] $end
$var wire 1 3 reg_dh [0] $end
$var wire 1 4 reg_dm [3] $end
$var wire 1 5 reg_dm [2] $end
$var wire 1 6 reg_dm [1] $end
$var wire 1 7 reg_dm [0] $end
$var wire 1 8 reg_ds [3] $end
$var wire 1 9 reg_ds [2] $end
$var wire 1 : reg_ds [1] $end
$var wire 1 ; reg_ds [0] $end
$var wire 1 < reg_uh [3] $end
$var wire 1 = reg_uh [2] $end
$var wire 1 > reg_uh [1] $end
$var wire 1 ? reg_uh [0] $end
$var wire 1 @ reg_um [3] $end
$var wire 1 A reg_um [2] $end
$var wire 1 B reg_um [1] $end
$var wire 1 C reg_um [0] $end
$var wire 1 D reg_us [3] $end
$var wire 1 E reg_us [2] $end
$var wire 1 F reg_us [1] $end
$var wire 1 G reg_us [0] $end
$var wire 1 H reg_US_enable $end

$scope module i1 $end
$var wire 1 I gnd $end
$var wire 1 J vcc $end
$var wire 1 K unknown $end
$var tri1 1 L devclrn $end
$var tri1 1 M devpor $end
$var tri1 1 N devoe $end
$var wire 1 O ~QUARTUS_CREATED_GND~I_combout $end
$var wire 1 P CLK~input_o $end
$var wire 1 Q CLK~inputCLKENA0_outclk $end
$var wire 1 R v_dez[3]~input_o $end
$var wire 1 S v_9[3]~input_o $end
$var wire 1 T v_2[3]~input_o $end
$var wire 1 U v_2[1]~input_o $end
$var wire 1 V v_2[0]~input_o $end
$var wire 1 W v_dez[2]~input_o $end
$var wire 1 X v_6[2]~input_o $end
$var wire 1 Y v_6[0]~input_o $end
$var wire 1 Z v_6[1]~input_o $end
$var wire 1 [ v_9[0]~input_o $end
$var wire 1 \ v_dez[0]~input_o $end
$var wire 1 ] ROM|reg_fstate.incrementa_DM_parte_II~0_combout $end
$var wire 1 ^ ROM|fstate.incrementa_DM_parte_II~q $end
$var wire 1 _ v_6[3]~input_o $end
$var wire 1 ` ROM|fstate.incrementa_DM_parte_II~DUPLICATE_q $end
$var wire 1 a ROM|reg_fstate.zera_DM~0_combout $end
$var wire 1 b ROM|fstate.zera_DM~q $end
$var wire 1 c ROM|palavra[6]~0_combout $end
$var wire 1 d ROM|Selector0~1_combout $end
$var wire 1 e v_4[3]~input_o $end
$var wire 1 f v_4[2]~input_o $end
$var wire 1 g v_4[1]~input_o $end
$var wire 1 h v_4[0]~input_o $end
$var wire 1 i comp_UH|eq~0_combout $end
$var wire 1 j ROM|Selector0~0_combout $end
$var wire 1 k ROM|Selector2~0_combout $end
$var wire 1 l ROM|fstate.conta_minuto~q $end
$var wire 1 m ROM|reg_fstate.conta_segundo~0_combout $end
$var wire 1 n ROM|reg_fstate.conta_segundo~1_combout $end
$var wire 1 o ROM|fstate.conta_segundo~q $end
$var wire 1 p ROM|reg_fstate.Incrementa_DS_parte_I~0_combout $end
$var wire 1 q ROM|fstate.Incrementa_DS_parte_I~q $end
$var wire 1 r ROM|reg_fstate.incrementa_DS_parteII~0_combout $end
$var wire 1 s ROM|fstate.incrementa_DS_parteII~q $end
$var wire 1 t ROM|palavra[7]~1_combout $end
$var wire 1 u v_1[0]~input_o $end
$var wire 1 v mux_das_constantes|Mux3~0_combout $end
$var wire 1 w mux_das_constantes|Mux3~1_combout $end
$var wire 1 x inst|Add0~18_cout $end
$var wire 1 y inst|Add0~13_sumout $end
$var wire 1 z inst|RESULT~3_combout $end
$var wire 1 { ROM|WideOr8~combout $end
$var wire 1 | inst|Mux0~0_combout $end
$var wire 1 } comp_DS|eq~0_combout $end
$var wire 1 ~ ROM|reg_fstate.zera_DS~0_combout $end
$var wire 1 !! ROM|fstate.zera_DS~q $end
$var wire 1 "! ROM|WideOr10~0_combout $end
$var wire 1 #! mux_das_constantes|Mux0~1_combout $end
$var wire 1 $! v_9[2]~input_o $end
$var wire 1 %! v_1[2]~input_o $end
$var wire 1 &! v_2[2]~input_o $end
$var wire 1 '! mux_das_constantes|Mux1~0_combout $end
$var wire 1 (! mux_das_constantes|Mux1~1_combout $end
$var wire 1 )! v_dez[1]~input_o $end
$var wire 1 *! v_9[1]~input_o $end
$var wire 1 +! v_1[1]~input_o $end
$var wire 1 ,! mux_das_constantes|Mux2~0_combout $end
$var wire 1 -! mux_das_constantes|Mux2~1_combout $end
$var wire 1 .! inst|Add0~14 $end
$var wire 1 /! inst|Add0~10 $end
$var wire 1 0! inst|Add0~5_sumout $end
$var wire 1 1! inst|RESULT~1_combout $end
$var wire 1 2! comp_US|eq~0_combout $end
$var wire 1 3! ROM|reg_fstate.incrementa_DM_parte_I~0_combout $end
$var wire 1 4! ROM|fstate.incrementa_DM_parte_I~q $end
$var wire 1 5! ROM|WideOr13~0_combout $end
$var wire 1 6! inst|Add0~9_sumout $end
$var wire 1 7! inst|RESULT~2_combout $end
$var wire 1 8! DH|q[1]~DUPLICATE_q $end
$var wire 1 9! comp_DH|eq~0_combout $end
$var wire 1 :! ROM|Selector4~0_combout $end
$var wire 1 ;! ROM|fstate.conta_hora~q $end
$var wire 1 <! ROM|reg_fstate.incrementa_DH_parte_I~0_combout $end
$var wire 1 =! ROM|fstate.incrementa_DH_parte_I~q $end
$var wire 1 >! ROM|reg_fstate.incrementa_DH_parte_II~0_combout $end
$var wire 1 ?! ROM|fstate.incrementa_DH_parte_II~q $end
$var wire 1 @! ROM|Selector6~0_combout $end
$var wire 1 A! ROM|fstate.zera_DH~q $end
$var wire 1 B! mux_das_constantes|Mux0~2_combout $end
$var wire 1 C! mux_das_constantes|Mux0~3_combout $end
$var wire 1 D! v_1[3]~input_o $end
$var wire 1 E! mux_das_constantes|Mux0~0_combout $end
$var wire 1 F! mux_das_constantes|Mux0~4_combout $end
$var wire 1 G! inst|Add0~6 $end
$var wire 1 H! inst|Add0~1_sumout $end
$var wire 1 I! inst|RESULT~0_combout $end
$var wire 1 J! DH|q[3]~DUPLICATE_q $end
$var wire 1 K! inst|R3 [3] $end
$var wire 1 L! inst|R3 [2] $end
$var wire 1 M! inst|R3 [1] $end
$var wire 1 N! inst|R3 [0] $end
$var wire 1 O! DH|q [3] $end
$var wire 1 P! DH|q [2] $end
$var wire 1 Q! DH|q [1] $end
$var wire 1 R! DH|q [0] $end
$upscope $end
$upscope $end
$enddefinitions $end
#0
$dumpvars
0!
b1 "
b10 #
b100 $
b110 %
b1001 &
b1010 '
0+
0*
0)
0(
0/
0.
0-
0,
03
02
01
00
07
06
05
04
0;
0:
09
08
0?
0>
0=
0<
0C
0B
0A
0@
0G
0F
0E
0D
1H
0I
1J
xK
1L
1M
1N
0O
0P
0Q
1R
1S
0T
1U
0V
0W
1X
0Y
1Z
1[
0\
0]
0^
0_
0`
0a
0b
0c
0d
0e
1f
0g
0h
0i
0j
0k
0l
0m
0n
0o
0p
0q
0r
0s
0t
1u
1v
1w
0x
1y
0z
1{
0|
0}
0~
0!!
1"!
0#!
0$!
0%!
0&!
0'!
0(!
1)!
0*!
0+!
0,!
0-!
0.!
0/!
00!
11!
02!
03!
04!
15!
06!
17!
08!
09!
0:!
0;!
0<!
0=!
0>!
0?!
0@!
0A!
0B!
0C!
0D!
0E!
0F!
0G!
0H!
1I!
0J!
0N!
0M!
0L!
0K!
0R!
0Q!
0P!
0O!
$end
#10000
1!
1P
1Q
1N!
1/
#20000
0!
0P
0Q
#30000
1!
1P
1Q
1R!
1+
13
17
1;
1?
1C
1G
1z
1.!
0y
16!
#40000
0!
0P
0Q
#50000
1!
1P
1Q
1M!
0N!
0/
1.
#60000
0!
0P
0Q
#70000
1!
1P
1Q
18!
1Q!
0R!
0+
03
07
0;
0?
0C
0G
1*
12
16
1:
1>
1B
1F
19!
07!
12!
1/!
0z
0.!
06!
1y
0/!
10!
16!
00!
#80000
0!
0P
0Q
#90000
1!
1P
1Q
1N!
1/
#100000
0!
0P
0Q
#110000
1!
1P
1Q
1R!
1+
13
17
1;
1?
1C
1G
09!
02!
1z
1.!
0y
1/!
06!
10!
#120000
0!
0P
0Q
#130000
1!
1P
1Q
0M!
1L!
0N!
0/
1-
0.
#140000
0!
0P
0Q
#150000
1!
1P
1Q
08!
0Q!
1P!
0R!
0+
03
07
0;
0?
0C
0G
1)
11
15
19
1=
1A
1E
0*
02
06
0:
0>
0B
0F
17!
0/!
1i
0z
0.!
01!
1G!
16!
1y
00!
0G!
10!
06!
1H!
0H!
#160000
0!
0P
0Q
#170000
1!
1P
1Q
1N!
1/
#180000
0!
0P
0Q
#190000
1!
1P
1Q
1R!
1+
13
17
1;
1?
1C
1G
1z
1.!
0i
0y
16!
#200000
0!
0P
0Q
#210000
1!
1P
1Q
1M!
0N!
0/
1.
#220000
0!
0P
0Q
#230000
1!
1P
1Q
18!
1Q!
0R!
0+
03
07
0;
0?
0C
0G
1*
12
16
1:
1>
1B
1F
07!
1/!
1}
0z
0.!
06!
1y
1G!
0/!
00!
16!
0G!
1H!
10!
0H!
#240000
0!
0P
0Q
#250000
1!
1P
1Q
1N!
1/
#260000
0!
0P
0Q
#270000
1!
1P
1Q
1R!
1+
13
17
1;
1?
1C
1G
0}
1z
1.!
0y
1/!
06!
1G!
00!
1H!
#280000
0!
0P
0Q
#290000
1!
1P
1Q
1K!
0M!
0L!
0N!
0/
0-
0.
1,
#300000
0!
0P
0Q
#310000
1!
1P
1Q
08!
1O!
0Q!
1J!
0P!
0R!
0+
03
07
0;
0?
0C
0G
0)
01
05
09
0=
0A
0E
1(
10
14
18
1<
1@
1D
0*
02
06
0:
0>
0B
0F
17!
0/!
0z
0.!
11!
0G!
0I!
16!
1y
10!
0H!
00!
06!
1H!
#320000
0!
0P
0Q
#330000
1!
1P
1Q
1N!
1/
#340000
0!
0P
0Q
#350000
1!
1P
1Q
1R!
1+
13
17
1;
1?
1C
1G
1z
1.!
0y
16!
#360000
0!
0P
0Q
#370000
1!
1P
1Q
1M!
0N!
0/
1.
#380000
0!
0P
0Q
#390000
1!
1P
1Q
18!
1Q!
0R!
0+
03
07
0;
0?
0C
0G
1*
12
16
1:
1>
1B
1F
19!
07!
12!
1/!
0z
0.!
06!
1y
0/!
1m
10!
16!
00!
#400000
0!
0P
0Q
1p
1n
#410000
1!
1P
1Q
0p
0n
1q
1o
1N!
1/
#420000
0!
0P
0Q
1r
1n
#430000
1!
1P
1Q
0r
0n
1s
0q
1R!
1+
13
17
1;
1?
1C
1G
1B!
1d
09!
02!
1z
1.!
0y
1/!
06!
10!
#440000
0!
0P
0Q
1|
1t
1'!
0v
0z
0w
01!
1(!
1G!
0.!
00!
1y
0/!
0H!
16!
0G!
10!
1H!
#450000
1!
1P
1Q
0|
0t
0'!
1v
1z
1w
11!
0(!
1.!
00!
0y
1/!
06!
10!
0s
0o
0K!
0M!
0N!
0/
0.
0,
0B!
0m
0d
#460000
0!
0P
0Q
#470000
1!
1P
1Q
08!
0O!
0Q!
0J!
1K!
1L!
0R!
0+
03
07
0;
0?
0C
0G
1-
1,
0(
00
04
08
0<
0@
0D
0*
02
06
0:
0>
0B
0F
17!
0/!
0z
0.!
1I!
16!
1y
0H!
00!
06!
#480000
0!
0P
0Q
#490000
1!
1P
1Q
1O!
1J!
0K!
1P!
0L!
1N!
1/
0-
1)
11
15
19
1=
1A
1E
0,
1(
10
14
18
1<
1@
1D
01!
1i
0I!
10!
1H!
#500000
0!
0P
0Q
#510000
1!
1P
1Q
0O!
0J!
1K!
0P!
1L!
1R!
1+
13
17
1;
1?
1C
1G
1-
0)
01
05
09
0=
0A
0E
1,
0(
00
04
08
0<
0@
0D
1z
1.!
0i
11!
1I!
0y
00!
0H!
16!
#520000
0!
0P
0Q
#530000
1!
1P
1Q
1O!
1J!
0K!
1M!
1P!
0L!
0N!
0/
0-
1)
11
15
19
1=
1A
1E
1.
0,
1(
10
14
18
1<
1@
1D
01!
0I!
10!
1H!
#540000
0!
0P
0Q
#550000
1!
1P
1Q
18!
0O!
1Q!
0J!
1K!
0P!
1L!
0R!
0+
03
07
0;
0?
0C
0G
1-
0)
01
05
09
0=
0A
0E
1,
0(
00
04
08
0<
0@
0D
1*
12
16
1:
1>
1B
1F
19!
07!
12!
1/!
0z
0.!
11!
1I!
06!
1y
00!
0H!
0/!
10!
16!
00!
#560000
0!
0P
0Q
#570000
1!
1P
1Q
1O!
1J!
0K!
1P!
0L!
1N!
1/
0-
1)
11
15
19
1=
1A
1E
0,
1(
10
14
18
1<
1@
1D
1m
09!
02!
01!
1}
0I!
10!
1H!
0m
#580000
0!
0P
0Q
#590000
1!
1P
1Q
0O!
0J!
1K!
0P!
1L!
1R!
1+
13
17
1;
1?
1C
1G
1-
0)
01
05
09
0=
0A
0E
1,
0(
00
04
08
0<
0@
0D
0}
1z
1.!
11!
1I!
0y
00!
0H!
1/!
06!
10!
#600000
0!
0P
0Q
#610000
1!
1P
1Q
1O!
1J!
0K!
0M!
1P!
0N!
0/
1)
11
15
19
1=
1A
1E
0.
0,
1(
10
14
18
1<
1@
1D
01!
1G!
0I!
00!
1H!
0H!
#620000
0!
0P
0Q
#630000
1!
1P
1Q
08!
0O!
0Q!
0J!
0L!
0R!
0+
03
07
0;
0?
0C
0G
0-
0(
00
04
08
0<
0@
0D
0*
02
06
0:
0>
0B
0F
17!
0/!
1i
0z
0.!
1I!
16!
1y
1H!
0G!
10!
06!
0H!
#640000
0!
0P
0Q
#650000
1!
1P
1Q
0P!
1L!
1N!
1/
1-
0)
01
05
09
0=
0A
0E
11!
0i
00!
#660000
0!
0P
0Q
#670000
1!
1P
1Q
1P!
0L!
1R!
1+
13
17
1;
1?
1C
1G
0-
1)
11
15
19
1=
1A
1E
1z
1.!
01!
0y
10!
16!
#680000
0!
0P
0Q
#690000
1!
1P
1Q
1M!
0P!
1L!
0N!
0/
1-
0)
01
05
09
0=
0A
0E
1.
11!
00!
#700000
0!
0P
0Q
#710000
1!
1P
1Q
18!
1Q!
1P!
0L!
0R!
0+
03
07
0;
0?
0C
0G
0-
1)
11
15
19
1=
1A
1E
1*
12
16
1:
1>
1B
1F
07!
1/!
1}
0z
0.!
01!
06!
1y
10!
1G!
0/!
00!
16!
0G!
1H!
10!
0H!
#720000
0!
0P
0Q
#730000
1!
1P
1Q
0P!
1L!
1N!
1/
1-
0)
01
05
09
0=
0A
0E
19!
12!
11!
0}
00!
#740000
0!
0P
0Q
#750000
1!
1P
1Q
1P!
0L!
1R!
1+
13
17
1;
1?
1C
1G
0-
1)
11
15
19
1=
1A
1E
09!
02!
1z
1.!
01!
0y
10!
1/!
06!
1G!
00!
1H!
#760000
0!
0P
0Q
#770000
1!
1P
1Q
1K!
0M!
0P!
0N!
0/
0)
01
05
09
0=
0A
0E
0.
1,
11!
0G!
10!
0H!
#780000
0!
0P
0Q
#790000
1!
1P
1Q
08!
1O!
0Q!
1J!
0K!
1L!
0R!
0+
03
07
0;
0?
0C
0G
1-
0,
1(
10
14
18
1<
1@
1D
0*
02
06
0:
0>
0B
0F
17!
0/!
0z
0.!
0I!
16!
1y
1H!
00!
06!
#800000
0!
0P
0Q
#810000
1!
1P
1Q
0O!
0J!
1K!
1P!
0L!
1N!
1/
0-
1)
11
15
19
1=
1A
1E
1,
0(
00
04
08
0<
0@
0D
01!
1i
1I!
10!
0H!
#820000
0!
0P
0Q
#830000
1!
1P
1Q
1O!
1J!
0K!
0P!
1L!
1R!
1+
13
17
1;
1?
1C
1G
1-
0)
01
05
09
0=
0A
0E
0,
1(
10
14
18
1<
1@
1D
1z
1.!
0i
11!
0I!
0y
00!
1H!
16!
#840000
0!
0P
0Q
#850000
1!
1P
1Q
0O!
0J!
1K!
1M!
1P!
0L!
0N!
0/
0-
1)
11
15
19
1=
1A
1E
1.
1,
0(
00
04
08
0<
0@
0D
01!
1I!
10!
0H!
#860000
0!
0P
0Q
#870000
1!
1P
1Q
18!
1O!
1Q!
1J!
0K!
0P!
1L!
0R!
0+
03
07
0;
0?
0C
0G
1-
0)
01
05
09
0=
0A
0E
0,
1(
10
14
18
1<
1@
1D
1*
12
16
1:
1>
1B
1F
19!
07!
12!
1/!
0z
0.!
11!
0I!
06!
1y
00!
1H!
0/!
1m
10!
16!
00!
#880000
0!
0P
0Q
1p
1n
#890000
1!
1P
1Q
0p
0n
1q
1o
0O!
0J!
1K!
1P!
0L!
1N!
1/
0-
1)
11
15
19
1=
1A
1E
1,
0(
00
04
08
0<
0@
0D
09!
02!
01!
1}
1I!
10!
0H!
#900000
0!
0P
0Q
1r
1n
#910000
1!
1P
1Q
0r
0n
1s
0q
1O!
1J!
0K!
0P!
1L!
1R!
1+
13
17
1;
1?
1C
1G
1-
0)
01
05
09
0=
0A
0E
0,
1(
10
14
18
1<
1@
1D
1B!
1d
0}
1z
1.!
11!
0I!
0y
00!
1H!
1/!
06!
10!
#920000
0!
0P
0Q
1|
1t
1'!
0v
0z
0w
01!
1(!
1G!
0.!
00!
1y
0/!
0H!
16!
0G!
10!
1H!
#930000
1!
1P
1Q
0|
0t
0'!
1v
1z
1w
11!
0(!
1.!
00!
0y
1/!
06!
10!
0s
0o
0O!
0J!
0M!
1P!
0L!
0N!
0/
0-
1)
11
15
19
1=
1A
1E
0.
0(
00
04
08
0<
0@
0D
0m
0B!
0d
01!
1G!
1I!
00!
0H!
1H!
#940000
0!
0P
0Q
#950000
1!
1P
1Q
08!
0Q!
1K!
0P!
0R!
0+
03
07
0;
0?
0C
0G
0)
01
05
09
0=
0A
0E
1,
0*
02
06
0:
0>
0B
0F
17!
0/!
0z
0.!
11!
0G!
16!
1y
10!
00!
06!
0H!
#960000
0!
0P
0Q
#970000
1!
1P
1Q
1O!
1J!
0K!
1N!
1/
0,
1(
10
14
18
1<
1@
1D
0I!
1H!
#980000
0!
0P
0Q
#990000
1!
1P
1Q
0O!
0J!
1K!
1R!
1+
13
17
1;
1?
1C
1G
1,
0(
00
04
08
0<
0@
0D
1z
1.!
1I!
0y
0H!
16!
