simulation/qsim/relogio.msim.vcd
$comment
	File created using the following command:
		vcd file relogio.msim.vcd -direction
$end
$date
	Thu Sep 27 12:58:58 2018
$end
$version
	ModelSim Version 10.4d
$end
$timescale
	1ps
$end

$scope module diagrama_de_blocos_relogio_vlg_vec_tst $end
$var reg 1 ! CLK $end
$var reg 5 " v_2 [4:0] $end
$var reg 5 # v_4 [4:0] $end
$var reg 5 $ v_6 [4:0] $end
$var reg 5 % v_9 [4:0] $end
$var reg 1 & v_10 $end
$var reg 1 ' v_11 $end
$var reg 1 ( v_12 $end
$var reg 1 ) v_13 $end
$var reg 1 * v_14 $end
$var reg 1 + v_100 $end
$var reg 1 , v_101 $end
$var reg 1 - v_102 $end
$var reg 1 . v_103 $end
$var reg 1 / v_104 $end
$var wire 1 0 out_mux_reg [4] $end
$var wire 1 1 out_mux_reg [3] $end
$var wire 1 2 out_mux_reg [2] $end
$var wire 1 3 out_mux_reg [1] $end
$var wire 1 4 out_mux_reg [0] $end
$var wire 1 5 out_ula [4] $end
$var wire 1 6 out_ula [3] $end
$var wire 1 7 out_ula [2] $end
$var wire 1 8 out_ula [1] $end
$var wire 1 9 out_ula [0] $end
$var wire 1 : reg_us [4] $end
$var wire 1 ; reg_us [3] $end
$var wire 1 < reg_us [2] $end
$var wire 1 = reg_us [1] $end
$var wire 1 > reg_us [0] $end
$var wire 1 ? reg_US_enable $end

$scope module i1 $end
$var wire 1 @ gnd $end
$var wire 1 A vcc $end
$var wire 1 B unknown $end
$var tri1 1 C devclrn $end
$var tri1 1 D devpor $end
$var tri1 1 E devoe $end
$var wire 1 F v_9[0]~input_o $end
$var wire 1 G v_9[1]~input_o $end
$var wire 1 H v_9[2]~input_o $end
$var wire 1 I v_9[3]~input_o $end
$var wire 1 J v_9[4]~input_o $end
$var wire 1 K ~QUARTUS_CREATED_GND~I_combout $end
$var wire 1 L CLK~input_o $end
$var wire 1 M CLK~inputCLKENA0_outclk $end
$var wire 1 N v_6[2]~input_o $end
$var wire 1 O v_6[4]~input_o $end
$var wire 1 P v_6[0]~input_o $end
$var wire 1 Q v_6[1]~input_o $end
$var wire 1 R v_6[3]~input_o $end
$var wire 1 S comp_DS|eq~0_combout $end
$var wire 1 T v_101~input_o $end
$var wire 1 U v_102~input_o $end
$var wire 1 V v_104~input_o $end
$var wire 1 W v_103~input_o $end
$var wire 1 X v_100~input_o $end
$var wire 1 Y comp_US|eq~0_combout $end
$var wire 1 Z v_4[4]~input_o $end
$var wire 1 [ v_4[2]~input_o $end
$var wire 1 \ v_4[1]~input_o $end
$var wire 1 ] v_4[3]~input_o $end
$var wire 1 ^ v_4[0]~input_o $end
$var wire 1 _ v_2[3]~input_o $end
$var wire 1 ` v_2[4]~input_o $end
$var wire 1 a v_2[2]~input_o $end
$var wire 1 b ROM|reg_fstate~3_combout $end
$var wire 1 c ROM|fstate.incrementa_DH_parte_I~q $end
$var wire 1 d ROM|fstate.incrementa_DH_parte_II~q $end
$var wire 1 e ROM|reg_fstate~0_combout $end
$var wire 1 f ROM|fstate.incrementa_DM_parte_I~q $end
$var wire 1 g ROM|fstate.incrementa_DM_parte_II~q $end
$var wire 1 h ROM|WideOr7~combout $end
$var wire 1 i ROM|reg_fstate~1_combout $end
$var wire 1 j ROM|fstate.zera_DM~q $end
$var wire 1 k ROM|WideOr12~combout $end
$var wire 1 l mux_das_constantes|Mux4~1_combout $end
$var wire 1 m v_12~input_o $end
$var wire 1 n mux_das_constantes|Mux2~0_combout $end
$var wire 1 o mux_dos_registradores|Mux0~0_combout $end
$var wire 1 p mux_dos_registradores|Mux2~0_combout $end
$var wire 1 q v_11~input_o $end
$var wire 1 r v_2[1]~input_o $end
$var wire 1 s mux_das_constantes|Mux3~0_combout $end
$var wire 1 t v_10~input_o $end
$var wire 1 u v_2[0]~input_o $end
$var wire 1 v mux_das_constantes|Mux4~2_combout $end
$var wire 1 w inst|Add0~22_cout $end
$var wire 1 x inst|Add0~17_sumout $end
$var wire 1 y mux_dos_registradores|Mux4~0_combout $end
$var wire 1 z inst|Add0~18 $end
$var wire 1 { inst|Add0~13_sumout $end
$var wire 1 | mux_dos_registradores|Mux3~0_combout $end
$var wire 1 } inst|Add0~14 $end
$var wire 1 ~ inst|Add0~9_sumout $end
$var wire 1 !! comp_DH|eq~0_combout $end
$var wire 1 "! ROM|fstate.zera_DH~0_combout $end
$var wire 1 #! ROM|fstate.zera_DH~q $end
$var wire 1 $! mux_das_constantes|Mux4~0_combout $end
$var wire 1 %! v_14~input_o $end
$var wire 1 &! mux_das_constantes|Mux0~0_combout $end
$var wire 1 '! v_13~input_o $end
$var wire 1 (! mux_das_constantes|Mux1~0_combout $end
$var wire 1 )! inst|Add0~10 $end
$var wire 1 *! inst|Add0~5_sumout $end
$var wire 1 +! mux_dos_registradores|Mux1~0_combout $end
$var wire 1 ,! inst|Add0~6 $end
$var wire 1 -! inst|Add0~1_sumout $end
$var wire 1 .! comp_DH|eq~1_combout $end
$var wire 1 /! ROM|Selector4~0_combout $end
$var wire 1 0! ROM|fstate.conta_hora~q $end
$var wire 1 1! ROM|Selector0~0_combout $end
$var wire 1 2! ROM|Selector0~1_combout $end
$var wire 1 3! ROM|fstate.conta_segundo~q $end
$var wire 1 4! ROM|reg_fstate~4_combout $end
$var wire 1 5! ROM|fstate.Incrementa_DS_parte_I~q $end
$var wire 1 6! ROM|fstate.incrementa_DS_parteII~q $end
$var wire 1 7! ROM|reg_fstate~2_combout $end
$var wire 1 8! ROM|fstate.zera_DS~q $end
$var wire 1 9! ROM|Selector2~0_combout $end
$var wire 1 :! ROM|fstate.conta_minuto~q $end
$var wire 1 ;! mux_dos_registradores|Mux0~1_combout $end
$var wire 1 <! DH|q [4] $end
$var wire 1 =! DH|q [3] $end
$var wire 1 >! DH|q [2] $end
$var wire 1 ?! DH|q [1] $end
$var wire 1 @! DH|q [0] $end
$var wire 1 A! inst|R3 [4] $end
$var wire 1 B! inst|R3 [3] $end
$var wire 1 C! inst|R3 [2] $end
$var wire 1 D! inst|R3 [1] $end
$var wire 1 E! inst|R3 [0] $end
$upscope $end
$upscope $end
$enddefinitions $end
#0
$dumpvars
0!
b10 "
b100 #
b110 $
b1001 %
1&
0'
0(
0)
0*
0+
0,
0-
0.
0/
04
03
02
01
00
09
08
07
06
05
0>
0=
0<
0;
0:
0?
0@
1A
xB
1C
1D
1E
1F
0G
0H
1I
0J
0K
0L
0M
1N
0O
0P
1Q
0R
0S
0T
0U
0V
0W
0X
1Y
0Z
1[
0\
0]
0^
0_
0`
0a
0b
0c
0d
0e
0f
0g
1h
0i
0j
1k
1l
0m
0n
1o
0p
0q
1r
0s
1t
0u
1v
0w
1x
0y
0z
0{
0|
0}
0~
0!!
0"!
0#!
0$!
0%!
0&!
0'!
0(!
0)!
0*!
0+!
0,!
0-!
1.!
0/!
00!
01!
12!
03!
14!
05!
06!
07!
08!
09!
0:!
0;!
0@!
0?!
0>!
0=!
0<!
0E!
0D!
0C!
0B!
0A!
$end
#10000
1!
1L
1M
15!
13!
1E!
19
04!
0h
0l
0k
0v
1z
1w
1-!
1*!
1~
1{
0x
1}
0{
1)!
0~
1,!
0*!
0-!
#20000
0!
0L
0M
#30000
1!
1L
1M
16!
05!
1@!
0E!
09
1l
1k
1h
02!
0,!
0)!
0}
0z
0w
1v
1-!
1*!
1~
1{
1x
0-!
0*!
0~
0{
#40000
0!
0L
0M
#50000
1!
1L
1M
06!
03!
0@!
1E!
19
14!
12!
#60000
0!
0L
0M
#70000
1!
1L
1M
15!
13!
1@!
04!
0h
0l
0k
0v
1z
1w
1-!
1*!
1~
1{
0x
1}
0{
1)!
0~
1,!
0*!
0-!
#80000
0!
0L
0M
#90000
1!
1L
1M
16!
05!
0E!
09
1l
1k
1h
02!
0,!
0)!
0}
0z
0w
1v
1-!
1*!
1~
1{
1x
0-!
0*!
0~
0{
#100000
0!
0L
0M
#110000
1!
1L
1M
06!
03!
0@!
1E!
19
14!
12!
#120000
0!
0L
0M
#130000
1!
1L
1M
15!
13!
1@!
04!
0h
0l
0k
0v
1z
1w
1-!
1*!
1~
1{
0x
1}
0{
1)!
0~
1,!
0*!
0-!
#140000
0!
0L
0M
#150000
1!
1L
1M
16!
05!
0E!
09
1l
1k
1h
02!
0,!
0)!
0}
0z
0w
1v
1-!
1*!
1~
1{
1x
0-!
0*!
0~
0{
#160000
0!
0L
0M
#170000
1!
1L
1M
06!
03!
0@!
1E!
19
14!
12!
#180000
0!
0L
0M
#190000
1!
1L
1M
15!
13!
1@!
04!
0h
0l
0k
0v
1z
1w
1-!
1*!
1~
1{
0x
1}
0{
1)!
0~
1,!
0*!
0-!
#200000
0!
0L
0M
#210000
1!
1L
1M
16!
05!
0E!
09
1l
1k
1h
02!
0,!
0)!
0}
0z
0w
1v
1-!
1*!
1~
1{
1x
0-!
0*!
0~
0{
#220000
0!
0L
0M
#230000
1!
1L
1M
06!
03!
0@!
1E!
19
14!
12!
#240000
0!
0L
0M
#250000
1!
1L
1M
15!
13!
1@!
04!
0h
0l
0k
0v
1z
1w
1-!
1*!
1~
1{
0x
1}
0{
1)!
0~
1,!
0*!
0-!
#260000
0!
0L
0M
#270000
1!
1L
1M
16!
05!
0E!
09
1l
1k
1h
02!
0,!
0)!
0}
0z
0w
1v
1-!
1*!
1~
1{
1x
0-!
0*!
0~
0{
#280000
0!
0L
0M
#290000
1!
1L
1M
06!
03!
0@!
1E!
19
14!
12!
#300000
0!
0L
0M
#310000
1!
1L
1M
15!
13!
1@!
04!
0h
0l
0k
0v
1z
1w
1-!
1*!
1~
1{
0x
1}
0{
1)!
0~
1,!
0*!
0-!
#320000
0!
0L
0M
#330000
1!
1L
1M
16!
05!
0E!
09
1l
1k
1h
02!
0,!
0)!
0}
0z
0w
1v
1-!
1*!
1~
1{
1x
0-!
0*!
0~
0{
#340000
0!
0L
0M
#350000
1!
1L
1M
06!
03!
0@!
1E!
19
14!
12!
#360000
0!
0L
0M
#370000
1!
1L
1M
15!
13!
1@!
04!
0h
0l
0k
0v
1z
1w
1-!
1*!
1~
1{
0x
1}
0{
1)!
0~
1,!
0*!
0-!
#380000
0!
0L
0M
#390000
1!
1L
1M
16!
05!
0E!
09
1l
1k
1h
02!
0,!
0)!
0}
0z
0w
1v
1-!
1*!
1~
1{
1x
0-!
0*!
0~
0{
#400000
0!
0L
0M
#410000
1!
1L
1M
06!
03!
0@!
1E!
19
14!
12!
#420000
0!
0L
0M
#430000
1!
1L
1M
15!
13!
1@!
04!
0h
0l
0k
0v
1z
1w
1-!
1*!
1~
1{
0x
1}
0{
1)!
0~
1,!
0*!
0-!
#440000
0!
0L
0M
#450000
1!
1L
1M
16!
05!
0E!
09
1l
1k
1h
02!
0,!
0)!
0}
0z
0w
1v
1-!
1*!
1~
1{
1x
0-!
0*!
0~
0{
#460000
0!
0L
0M
#470000
1!
1L
1M
06!
03!
0@!
1E!
19
14!
12!
#480000
0!
0L
0M
#490000
1!
1L
1M
15!
13!
1@!
04!
0h
0l
0k
0v
1z
1w
1-!
1*!
1~
1{
0x
1}
0{
1)!
0~
1,!
0*!
0-!
#500000
0!
0L
0M
#510000
1!
1L
1M
16!
05!
0E!
09
1l
1k
1h
02!
0,!
0)!
0}
0z
0w
1v
1-!
1*!
1~
1{
1x
0-!
0*!
0~
0{
#520000
0!
0L
0M
#530000
1!
1L
1M
06!
03!
0@!
1E!
19
14!
12!
#540000
0!
0L
0M
#550000
1!
1L
1M
15!
13!
1@!
04!
0h
0l
0k
0v
1z
1w
1-!
1*!
1~
1{
0x
1}
0{
1)!
0~
1,!
0*!
0-!
#560000
0!
0L
0M
#570000
1!
1L
1M
16!
05!
0E!
09
1l
1k
1h
02!
0,!
0)!
0}
0z
0w
1v
1-!
1*!
1~
1{
1x
0-!
0*!
0~
0{
#580000
0!
0L
0M
#590000
1!
1L
1M
06!
03!
0@!
1E!
19
14!
12!
#600000
0!
0L
0M
#610000
1!
1L
1M
15!
13!
1@!
04!
0h
0l
0k
0v
1z
1w
1-!
1*!
1~
1{
0x
1}
0{
1)!
0~
1,!
0*!
0-!
#620000
0!
0L
0M
#630000
1!
1L
1M
16!
05!
0E!
09
1l
1k
1h
02!
0,!
0)!
0}
0z
0w
1v
1-!
1*!
1~
1{
1x
0-!
0*!
0~
0{
#640000
0!
0L
0M
#650000
1!
1L
1M
06!
03!
0@!
1E!
19
14!
12!
#660000
0!
0L
0M
#670000
1!
1L
1M
15!
13!
1@!
04!
0h
0l
0k
0v
1z
1w
1-!
1*!
1~
1{
0x
1}
0{
1)!
0~
1,!
0*!
0-!
#680000
0!
0L
0M
#690000
1!
1L
1M
16!
05!
0E!
09
1l
1k
1h
02!
0,!
0)!
0}
0z
0w
1v
1-!
1*!
1~
1{
1x
0-!
0*!
0~
0{
#700000
0!
0L
0M
#710000
1!
1L
1M
06!
03!
0@!
1E!
19
14!
12!
#720000
0!
0L
0M
#730000
1!
1L
1M
15!
13!
1@!
04!
0h
0l
0k
0v
1z
1w
1-!
1*!
1~
1{
0x
1}
0{
1)!
0~
1,!
0*!
0-!
#740000
0!
0L
0M
#750000
1!
1L
1M
16!
05!
0E!
09
1l
1k
1h
02!
0,!
0)!
0}
0z
0w
1v
1-!
1*!
1~
1{
1x
0-!
0*!
0~
0{
#760000
0!
0L
0M
#770000
1!
1L
1M
06!
03!
0@!
1E!
19
14!
12!
#780000
0!
0L
0M
#790000
1!
1L
1M
15!
13!
1@!
04!
0h
0l
0k
0v
1z
1w
1-!
1*!
1~
1{
0x
1}
0{
1)!
0~
1,!
0*!
0-!
#800000
0!
0L
0M
#810000
1!
1L
1M
16!
05!
0E!
09
1l
1k
1h
02!
0,!
0)!
0}
0z
0w
1v
1-!
1*!
1~
1{
1x
0-!
0*!
0~
0{
#820000
0!
0L
0M
#830000
1!
1L
1M
06!
03!
0@!
1E!
19
14!
12!
#840000
0!
0L
0M
#850000
1!
1L
1M
15!
13!
1@!
04!
0h
0l
0k
0v
1z
1w
1-!
1*!
1~
1{
0x
1}
0{
1)!
0~
1,!
0*!
0-!
#860000
0!
0L
0M
#870000
1!
1L
1M
16!
05!
0E!
09
1l
1k
1h
02!
0,!
0)!
0}
0z
0w
1v
1-!
1*!
1~
1{
1x
0-!
0*!
0~
0{
#880000
0!
0L
0M
#890000
1!
1L
1M
06!
03!
0@!
1E!
19
14!
12!
#900000
0!
0L
0M
#910000
1!
1L
1M
15!
13!
1@!
04!
0h
0l
0k
0v
1z
1w
1-!
1*!
1~
1{
0x
1}
0{
1)!
0~
1,!
0*!
0-!
#920000
0!
0L
0M
#930000
1!
1L
1M
16!
05!
0E!
09
1l
1k
1h
02!
0,!
0)!
0}
0z
0w
1v
1-!
1*!
1~
1{
1x
0-!
0*!
0~
0{
#940000
0!
0L
0M
#950000
1!
1L
1M
06!
03!
0@!
1E!
19
14!
12!
#960000
0!
0L
0M
#970000
1!
1L
1M
15!
13!
1@!
04!
0h
0l
0k
0v
1z
1w
1-!
1*!
1~
1{
0x
1}
0{
1)!
0~
1,!
0*!
0-!
#980000
0!
0L
0M
#990000
1!
1L
1M
16!
05!
0E!
09
1l
1k
1h
02!
0,!
0)!
0}
0z
0w
1v
1-!
1*!
1~
1{
1x
0-!
0*!
0~
0{
