simulation/qsim/relogio.msim.vcd
$comment
	File created using the following command:
		vcd file relogio.msim.vcd -direction
$end
$date
	Tue Sep 18 11:46:00 2018
$end
$version
	ModelSim Version 10.4d
$end
$timescale
	1ps
$end

$scope module diagrama_de_blocos_relogio_vlg_vec_tst $end
$var reg 1 ! CLK $end
$var reg 4 " mux_abs_control [3:0] $end
$var reg 4 # mux_reg_control [3:0] $end
$var reg 1 $ reg_dh_enable $end
$var reg 1 % reg_dh_reset $end
$var reg 1 & reg_dm_enable $end
$var reg 1 ' reg_dm_reset $end
$var reg 1 ( reg_ds_enable $end
$var reg 1 ) reg_ds_reset $end
$var reg 1 * reg_uh_enable $end
$var reg 1 + reg_uh_reset $end
$var reg 1 , reg_um_enable $end
$var reg 1 - reg_um_reset $end
$var reg 1 . reg_us_enable $end
$var reg 1 / reg_us_reset $end
$var reg 2 0 ula_control [1:0] $end
$var reg 5 1 v_0 [4:0] $end
$var reg 5 2 v_2 [4:0] $end
$var reg 5 3 v_4 [4:0] $end
$var reg 5 4 v_6 [4:0] $end
$var reg 5 5 v_9 [4:0] $end
$var reg 5 6 v_10 [4:0] $end
$var reg 5 7 v_um [4:0] $end
$var wire 1 8 out_mux_reg [4] $end
$var wire 1 9 out_mux_reg [3] $end
$var wire 1 : out_mux_reg [2] $end
$var wire 1 ; out_mux_reg [1] $end
$var wire 1 < out_mux_reg [0] $end
$var wire 1 = out_ula [4] $end
$var wire 1 > out_ula [3] $end
$var wire 1 ? out_ula [2] $end
$var wire 1 @ out_ula [1] $end
$var wire 1 A out_ula [0] $end
$var wire 1 B reg_us [4] $end
$var wire 1 C reg_us [3] $end
$var wire 1 D reg_us [2] $end
$var wire 1 E reg_us [1] $end
$var wire 1 F reg_us [0] $end

$scope module i1 $end
$var wire 1 G gnd $end
$var wire 1 H vcc $end
$var wire 1 I unknown $end
$var tri1 1 J devclrn $end
$var tri1 1 K devpor $end
$var tri1 1 L devoe $end
$var wire 1 M ula_control[1]~input_o $end
$var wire 1 N ula_control[0]~input_o $end
$var wire 1 O ~QUARTUS_CREATED_GND~I_combout $end
$var wire 1 P mux_reg_control[1]~input_o $end
$var wire 1 Q mux_reg_control[3]~input_o $end
$var wire 1 R CLK~input_o $end
$var wire 1 S CLK~inputCLKENA0_outclk $end
$var wire 1 T mux_abs_control[2]~input_o $end
$var wire 1 U mux_abs_control[1]~input_o $end
$var wire 1 V v_0[4]~input_o $end
$var wire 1 W mux_abs_control[3]~input_o $end
$var wire 1 X mux_abs_control[0]~input_o $end
$var wire 1 Y v_2[4]~input_o $end
$var wire 1 Z v_4[4]~input_o $end
$var wire 1 [ v_um[4]~input_o $end
$var wire 1 \ v_6[4]~input_o $end
$var wire 1 ] mux_das_constantes|Mux0~0_combout $end
$var wire 1 ^ v_9[4]~input_o $end
$var wire 1 _ mux_das_constantes|Mux0~1_combout $end
$var wire 1 ` v_0[3]~input_o $end
$var wire 1 a v_um[3]~input_o $end
$var wire 1 b v_6[3]~input_o $end
$var wire 1 c v_2[3]~input_o $end
$var wire 1 d v_4[3]~input_o $end
$var wire 1 e mux_das_constantes|Mux1~0_combout $end
$var wire 1 f v_9[3]~input_o $end
$var wire 1 g mux_das_constantes|Mux1~1_combout $end
$var wire 1 h v_0[2]~input_o $end
$var wire 1 i v_4[2]~input_o $end
$var wire 1 j v_um[2]~input_o $end
$var wire 1 k v_6[2]~input_o $end
$var wire 1 l v_2[2]~input_o $end
$var wire 1 m mux_das_constantes|Mux2~0_combout $end
$var wire 1 n v_9[2]~input_o $end
$var wire 1 o mux_das_constantes|Mux2~1_combout $end
$var wire 1 p v_um[1]~input_o $end
$var wire 1 q v_2[1]~input_o $end
$var wire 1 r v_6[1]~input_o $end
$var wire 1 s v_4[1]~input_o $end
$var wire 1 t mux_das_constantes|Mux3~0_combout $end
$var wire 1 u v_0[1]~input_o $end
$var wire 1 v v_9[1]~input_o $end
$var wire 1 w mux_das_constantes|Mux3~1_combout $end
$var wire 1 x v_um[0]~input_o $end
$var wire 1 y v_2[0]~input_o $end
$var wire 1 z v_6[0]~input_o $end
$var wire 1 { v_4[0]~input_o $end
$var wire 1 | mux_das_constantes|Mux4~0_combout $end
$var wire 1 } v_0[0]~input_o $end
$var wire 1 ~ v_9[0]~input_o $end
$var wire 1 !! mux_das_constantes|Mux4~1_combout $end
$var wire 1 "! inst|Add0~17_sumout $end
$var wire 1 #! reg_dh_reset~input_o $end
$var wire 1 $! reg_dh_enable~input_o $end
$var wire 1 %! mux_reg_control[2]~input_o $end
$var wire 1 &! mux_reg_control[0]~input_o $end
$var wire 1 '! DM|q[0]~feeder_combout $end
$var wire 1 (! reg_dm_reset~input_o $end
$var wire 1 )! reg_dm_enable~input_o $end
$var wire 1 *! UM|q[0]~feeder_combout $end
$var wire 1 +! reg_um_reset~input_o $end
$var wire 1 ,! reg_um_enable~input_o $end
$var wire 1 -! DS|q[0]~feeder_combout $end
$var wire 1 .! reg_ds_reset~input_o $end
$var wire 1 /! reg_ds_enable~input_o $end
$var wire 1 0! v_10[0]~input_o $end
$var wire 1 1! reg_us_reset~input_o $end
$var wire 1 2! reg_us_enable~input_o $end
$var wire 1 3! mux_dos_registradores|Mux4~0_combout $end
$var wire 1 4! UH|q[0]~feeder_combout $end
$var wire 1 5! reg_uh_reset~input_o $end
$var wire 1 6! reg_uh_enable~input_o $end
$var wire 1 7! mux_dos_registradores|Mux4~1_combout $end
$var wire 1 8! inst|Add0~18 $end
$var wire 1 9! inst|Add0~13_sumout $end
$var wire 1 :! DM|q[1]~feeder_combout $end
$var wire 1 ;! UM|q[1]~feeder_combout $end
$var wire 1 <! v_10[1]~input_o $end
$var wire 1 =! mux_dos_registradores|Mux3~0_combout $end
$var wire 1 >! UH|q[1]~feeder_combout $end
$var wire 1 ?! mux_dos_registradores|Mux3~1_combout $end
$var wire 1 @! inst|Add0~14 $end
$var wire 1 A! inst|Add0~9_sumout $end
$var wire 1 B! DS|q[2]~feeder_combout $end
$var wire 1 C! UM|q[2]~feeder_combout $end
$var wire 1 D! v_10[2]~input_o $end
$var wire 1 E! DM|q[2]~feeder_combout $end
$var wire 1 F! mux_dos_registradores|Mux2~0_combout $end
$var wire 1 G! UH|q[2]~feeder_combout $end
$var wire 1 H! mux_dos_registradores|Mux2~1_combout $end
$var wire 1 I! inst|Add0~10 $end
$var wire 1 J! inst|Add0~5_sumout $end
$var wire 1 K! DM|q[3]~feeder_combout $end
$var wire 1 L! UM|q[3]~feeder_combout $end
$var wire 1 M! DS|q[3]~feeder_combout $end
$var wire 1 N! v_10[3]~input_o $end
$var wire 1 O! mux_dos_registradores|Mux1~0_combout $end
$var wire 1 P! UH|q[3]~feeder_combout $end
$var wire 1 Q! mux_dos_registradores|Mux1~1_combout $end
$var wire 1 R! inst|Add0~6 $end
$var wire 1 S! inst|Add0~1_sumout $end
$var wire 1 T! UM|q[4]~feeder_combout $end
$var wire 1 U! DM|q[4]~feeder_combout $end
$var wire 1 V! v_10[4]~input_o $end
$var wire 1 W! mux_dos_registradores|Mux0~0_combout $end
$var wire 1 X! mux_dos_registradores|Mux0~1_combout $end
$var wire 1 Y! US|q [4] $end
$var wire 1 Z! US|q [3] $end
$var wire 1 [! US|q [2] $end
$var wire 1 \! US|q [1] $end
$var wire 1 ]! US|q [0] $end
$var wire 1 ^! inst|R3 [4] $end
$var wire 1 _! inst|R3 [3] $end
$var wire 1 `! inst|R3 [2] $end
$var wire 1 a! inst|R3 [1] $end
$var wire 1 b! inst|R3 [0] $end
$var wire 1 c! DH|q [4] $end
$var wire 1 d! DH|q [3] $end
$var wire 1 e! DH|q [2] $end
$var wire 1 f! DH|q [1] $end
$var wire 1 g! DH|q [0] $end
$var wire 1 h! DS|q [4] $end
$var wire 1 i! DS|q [3] $end
$var wire 1 j! DS|q [2] $end
$var wire 1 k! DS|q [1] $end
$var wire 1 l! DS|q [0] $end
$var wire 1 m! inst2 [4] $end
$var wire 1 n! inst2 [3] $end
$var wire 1 o! inst2 [2] $end
$var wire 1 p! inst2 [1] $end
$var wire 1 q! inst2 [0] $end
$var wire 1 r! UM|q [4] $end
$var wire 1 s! UM|q [3] $end
$var wire 1 t! UM|q [2] $end
$var wire 1 u! UM|q [1] $end
$var wire 1 v! UM|q [0] $end
$var wire 1 w! DM|q [4] $end
$var wire 1 x! DM|q [3] $end
$var wire 1 y! DM|q [2] $end
$var wire 1 z! DM|q [1] $end
$var wire 1 {! DM|q [0] $end
$var wire 1 |! UH|q [4] $end
$var wire 1 }! UH|q [3] $end
$var wire 1 ~! UH|q [2] $end
$var wire 1 !" UH|q [1] $end
$var wire 1 "" UH|q [0] $end
$upscope $end
$upscope $end
$enddefinitions $end
#0
$dumpvars
0!
b0 "
b0 #
0$
0%
0&
0'
0(
0)
0*
0+
0,
0-
1.
1/
b0 0
b0 1
b0 2
b0 3
b0 4
b0 5
b1010 6
b1 7
0<
0;
0:
09
08
0A
0@
0?
0>
0=
0F
0E
0D
0C
0B
0G
1H
xI
1J
1K
1L
0M
0N
0O
0P
0Q
0R
0S
0T
0U
0V
0W
0X
0Y
0Z
0[
0\
0]
0^
0_
0`
0a
0b
0c
0d
0e
0f
0g
0h
0i
0j
0k
0l
0m
0n
0o
0p
0q
0r
0s
0t
0u
0v
0w
1x
0y
0z
0{
1|
0}
0~
1!!
1"!
0#!
0$!
0%!
0&!
0'!
0(!
0)!
0*!
0+!
0,!
0-!
0.!
0/!
00!
11!
12!
03!
04!
05!
06!
07!
08!
09!
0:!
0;!
1<!
0=!
0>!
0?!
0@!
0A!
0B!
0C!
0D!
0E!
0F!
0G!
0H!
0I!
0J!
0K!
0L!
0M!
1N!
0O!
0P!
0Q!
0R!
0S!
0T!
0U!
0V!
0W!
0X!
0]!
0\!
0[!
0Z!
0Y!
0b!
0a!
0`!
0_!
0^!
0g!
0f!
0e!
0d!
0c!
0l!
0k!
0j!
0i!
0h!
0q!
1p!
0o!
1n!
0m!
0v!
0u!
0t!
0s!
0r!
0{!
0z!
0y!
0x!
0w!
0""
0!"
0~!
0}!
0|!
$end
#10000
1!
1R
1S
1Z!
1\!
1b!
1A
1E
1C
1=!
1O!
14!
1q!
1-!
1*!
1'!
1Q!
1?!
1;
19
19!
1J!
#20000
0!
0R
0S
#30000
1!
1R
1S
1_!
1a!
1]!
1F
1@
1>
13!
1>!
0p!
1;!
1:!
1P!
0n!
1M!
1L!
1K!
17!
1<
18!
0"!
1@!
09!
1A!
#40000
0!
0R
0S
#50000
1!
1R
1S
0Z!
1`!
0\!
0a!
0b!
0A
0@
0E
1?
0C
0=!
0O!
04!
0q!
0-!
0*!
0'!
0>!
1p!
0;!
0:!
1G!
1E!
1o!
1C!
1B!
0Q!
0?!
0;
09
0@!
19!
0J!
0A!
#60000
0!
0R
0S
#70000
1!
1R
1S
0_!
1[!
0`!
1\!
1a!
0]!
0F
1@
1E
0?
1D
0>
03!
1=!
1F!
1>!
0p!
1;!
1:!
0G!
0E!
0o!
0C!
0B!
0P!
1n!
0M!
0L!
0K!
1H!
1?!
07!
0<
1;
1:
08!
1@!
1"!
09!
1A!
0@!
1I!
19!
0A!
0I!
1A!
1J!
0J!
#80000
0!
0R
0S
#90000
1!
1R
1S
1Z!
0[!
1`!
0\!
1b!
1A
0E
1?
0D
1C
0=!
0F!
1O!
14!
1q!
1-!
1*!
1'!
1G!
1E!
1o!
1C!
1B!
1Q!
0H!
0?!
0;
0:
19
09!
0A!
1J!
#100000
0!
0R
0S
#110000
1!
1R
1S
1_!
1[!
0`!
0a!
1]!
1F
0@
0?
1D
1>
13!
1F!
0>!
1p!
0;!
0:!
0G!
0E!
0o!
0C!
0B!
1P!
0n!
1M!
1L!
1K!
1H!
17!
1<
1:
18!
0"!
1A!
19!
#120000
0!
0R
0S
#130000
1!
1R
1S
0Z!
0[!
1`!
1\!
1a!
0b!
0A
1@
1E
1?
0D
0C
1=!
0F!
0O!
04!
0q!
0-!
0*!
0'!
1>!
0p!
1;!
1:!
1G!
1E!
1o!
1C!
1B!
0Q!
0H!
1?!
1;
0:
09
1@!
09!
0A!
0J!
1A!
#140000
0!
0R
0S
#150000
1!
1R
1S
0_!
1[!
0\!
0a!
0]!
0F
0@
0E
1D
0>
03!
0=!
1F!
0>!
1p!
0;!
0:!
0P!
1n!
0M!
0L!
0K!
1H!
0?!
07!
0<
0;
1:
08!
0@!
1I!
1"!
19!
0A!
0I!
09!
1A!
1J!
0J!
#160000
0!
0R
0S
#170000
1!
1R
1S
1Z!
1\!
1b!
1A
1E
1C
1=!
1O!
14!
1q!
1-!
1*!
1'!
1Q!
1?!
1;
19
19!
1J!
#180000
0!
0R
0S
#190000
1!
1R
1S
1_!
1a!
1]!
1F
1@
1>
13!
1>!
0p!
1;!
1:!
1P!
0n!
1M!
1L!
1K!
17!
1<
18!
0"!
1@!
09!
1I!
0A!
1R!
0J!
1S!
#200000
0!
0R
0S
#210000
1!
1R
1S
1^!
0Z!
0_!
0`!
0\!
0a!
0b!
0A
0@
0E
0?
0>
0C
1=
0=!
0O!
04!
0q!
0-!
0*!
0'!
0>!
1p!
0;!
0:!
0G!
0E!
0o!
0C!
0B!
0P!
1n!
0M!
0L!
0K!
1m!
1U!
1T!
0Q!
0?!
0;
09
0@!
0R!
19!
1J!
0I!
1A!
0S!
0J!
#220000
0!
0R
0S
#230000
1!
1R
1S
1Y!
0^!
1Z!
0[!
1`!
1\!
1a!
0]!
0F
1@
1E
1?
0D
1C
0=
1B
03!
1=!
0F!
1O!
1W!
1>!
0p!
1;!
1:!
1G!
1E!
1o!
1C!
1B!
0m!
0U!
0T!
1X!
1Q!
0H!
1?!
07!
0<
1;
0:
19
18
08!
1@!
1"!
09!
0A!
1J!
1S!
0@!
19!
1A!
0A!
#240000
0!
0R
0S
#250000
1!
1R
1S
0Y!
1^!
1_!
1[!
0`!
0\!
1b!
1A
0E
0?
1D
1>
1=
0B
0=!
1F!
0W!
14!
1q!
1-!
1*!
1'!
0G!
0E!
0o!
0C!
0B!
1P!
0n!
1M!
1L!
1K!
1m!
1U!
1T!
0X!
1H!
0?!
0;
1:
08
09!
1A!
0S!
#260000
0!
0R
0S
#270000
1!
1R
1S
1Y!
0^!
0Z!
0[!
1`!
0a!
1]!
1F
0@
1?
0D
0C
0=
1B
13!
0F!
0O!
1W!
0>!
1p!
0;!
0:!
1G!
1E!
1o!
1C!
1B!
0m!
0U!
0T!
1X!
0Q!
0H!
17!
1<
0:
09
18
18!
0"!
0A!
0J!
1S!
19!
#280000
0!
0R
0S
#290000
1!
1R
1S
0Y!
1^!
0_!
1[!
0`!
1\!
1a!
0b!
0A
1@
1E
0?
1D
0>
1=
0B
1=!
1F!
0W!
04!
0q!
0-!
0*!
0'!
1>!
0p!
1;!
1:!
0G!
0E!
0o!
0C!
0B!
0P!
1n!
0M!
0L!
0K!
1m!
1U!
1T!
0X!
1H!
1?!
1;
1:
08
1@!
09!
1A!
0S!
1I!
0A!
1J!
#300000
0!
0R
0S
#310000
1!
1R
1S
1Y!
0^!
1Z!
1_!
0[!
0\!
0a!
0]!
0F
0@
0E
0D
1>
1C
0=
1B
03!
0=!
0F!
1O!
1W!
0>!
1p!
0;!
0:!
1P!
0n!
1M!
1L!
1K!
0m!
0U!
0T!
1X!
1Q!
0H!
0?!
07!
0<
0;
0:
19
18
08!
0@!
0I!
1R!
1"!
19!
1A!
0J!
1S!
0R!
09!
0A!
1J!
0S!
1S!
#320000
0!
0R
0S
#330000
1!
1R
1S
0Y!
1^!
0Z!
1\!
1b!
1A
1E
0C
1=
0B
1=!
0O!
0W!
14!
1q!
1-!
1*!
1'!
1m!
1U!
1T!
0X!
0Q!
1?!
1;
09
08
19!
0J!
0S!
#340000
0!
0R
0S
#350000
1!
1R
1S
1Y!
0^!
0_!
1a!
1]!
1F
1@
0>
0=
1B
13!
1W!
1>!
0p!
1;!
1:!
0P!
1n!
0M!
0L!
0K!
0m!
0U!
0T!
1X!
17!
1<
18
18!
0"!
1S!
1@!
09!
1A!
#360000
0!
0R
0S
#370000
1!
1R
1S
0Y!
1^!
1Z!
1`!
0\!
0a!
0b!
0A
0@
0E
1?
1C
1=
0B
0=!
1O!
0W!
04!
0q!
0-!
0*!
0'!
0>!
1p!
0;!
0:!
1G!
1E!
1o!
1C!
1B!
1m!
1U!
1T!
0X!
1Q!
0?!
0;
19
08
0@!
19!
1J!
0S!
0A!
#380000
0!
0R
0S
#390000
1!
1R
1S
1Y!
0^!
1_!
1[!
0`!
1\!
1a!
0]!
0F
1@
1E
0?
1D
1>
0=
1B
03!
1=!
1F!
1W!
1>!
0p!
1;!
1:!
0G!
0E!
0o!
0C!
0B!
1P!
0n!
1M!
1L!
1K!
0m!
0U!
0T!
1X!
1H!
1?!
07!
0<
1;
1:
18
08!
1@!
1"!
09!
1A!
1S!
0@!
1I!
19!
0A!
0I!
1R!
1A!
0J!
0R!
1J!
0S!
1S!
#400000
0!
0R
0S
#410000
1!
1R
1S
0Y!
1^!
0Z!
0[!
1`!
0\!
1b!
1A
0E
1?
0D
0C
1=
0B
0=!
0F!
0O!
0W!
14!
1q!
1-!
1*!
1'!
1G!
1E!
1o!
1C!
1B!
1m!
1U!
1T!
0X!
0Q!
0H!
0?!
0;
0:
09
08
09!
0A!
0J!
0S!
#420000
0!
0R
0S
#430000
1!
1R
1S
1Y!
0^!
0_!
1[!
0`!
0a!
1]!
1F
0@
0?
1D
0>
0=
1B
13!
1F!
1W!
0>!
1p!
0;!
0:!
0G!
0E!
0o!
0C!
0B!
0P!
1n!
0M!
0L!
0K!
0m!
0U!
0T!
1X!
1H!
17!
1<
1:
18
18!
0"!
1A!
1S!
19!
#440000
0!
0R
0S
#450000
1!
1R
1S
0Y!
1^!
1Z!
0[!
1`!
1\!
1a!
0b!
0A
1@
1E
1?
0D
1C
1=
0B
1=!
0F!
1O!
0W!
04!
0q!
0-!
0*!
0'!
1>!
0p!
1;!
1:!
1G!
1E!
1o!
1C!
1B!
1m!
1U!
1T!
0X!
1Q!
0H!
1?!
1;
0:
19
08
1@!
09!
0A!
1J!
0S!
1A!
#460000
0!
0R
0S
#470000
1!
1R
1S
1Y!
0^!
1_!
1[!
0\!
0a!
0]!
0F
0@
0E
1D
1>
0=
1B
03!
0=!
1F!
1W!
0>!
1p!
0;!
0:!
1P!
0n!
1M!
1L!
1K!
0m!
0U!
0T!
1X!
1H!
0?!
07!
0<
0;
1:
18
08!
0@!
1I!
1"!
19!
0A!
1S!
0I!
1R!
09!
1A!
0J!
0R!
1J!
0S!
1S!
#480000
0!
0R
0S
#490000
1!
1R
1S
0Y!
1^!
0Z!
1\!
1b!
1A
1E
0C
1=
0B
1=!
0O!
0W!
14!
1q!
1-!
1*!
1'!
1m!
1U!
1T!
0X!
0Q!
1?!
1;
09
08
19!
0J!
0S!
#500000
0!
0R
0S
#510000
1!
1R
1S
1Y!
0^!
0_!
1a!
1]!
1F
1@
0>
0=
1B
13!
1W!
1>!
0p!
1;!
1:!
0P!
1n!
0M!
0L!
0K!
0m!
0U!
0T!
1X!
17!
1<
18
18!
0"!
1S!
1@!
09!
1I!
0A!
1J!
#520000
0!
0R
0S
#530000
1!
1R
1S
0Y!
1^!
1Z!
1_!
0`!
0\!
0a!
0b!
0A
0@
0E
0?
1>
1C
1=
0B
0=!
1O!
0W!
04!
0q!
0-!
0*!
0'!
0>!
1p!
0;!
0:!
0G!
0E!
0o!
0C!
0B!
1P!
0n!
1M!
1L!
1K!
1m!
1U!
1T!
0X!
1Q!
0?!
0;
19
08
0@!
1R!
19!
0J!
0S!
0I!
1A!
1S!
0R!
1J!
0S!
#540000
0!
0R
0S
#550000
1!
1R
1S
1Y!
0^!
0Z!
0[!
1`!
1\!
1a!
0]!
0F
1@
1E
1?
0D
0C
0=
1B
03!
1=!
0F!
0O!
1W!
1>!
0p!
1;!
1:!
1G!
1E!
1o!
1C!
1B!
0m!
0U!
0T!
1X!
0Q!
0H!
1?!
07!
0<
1;
0:
09
18
08!
1@!
1"!
09!
0A!
0J!
1S!
0@!
19!
1A!
0A!
#560000
0!
0R
0S
#570000
1!
1R
1S
0Y!
1^!
0_!
1[!
0`!
0\!
1b!
1A
0E
0?
1D
0>
1=
0B
0=!
1F!
0W!
14!
1q!
1-!
1*!
1'!
0G!
0E!
0o!
0C!
0B!
0P!
1n!
0M!
0L!
0K!
1m!
1U!
1T!
0X!
1H!
0?!
0;
1:
08
09!
1A!
0S!
#580000
0!
0R
0S
#590000
1!
1R
1S
1Y!
0^!
1Z!
0[!
1`!
0a!
1]!
1F
0@
1?
0D
1C
0=
1B
13!
0F!
1O!
1W!
0>!
1p!
0;!
0:!
1G!
1E!
1o!
1C!
1B!
0m!
0U!
0T!
1X!
1Q!
0H!
17!
1<
0:
19
18
18!
0"!
0A!
1J!
1S!
19!
#600000
0!
0R
0S
#610000
1!
1R
1S
0Y!
1^!
1_!
1[!
0`!
1\!
1a!
0b!
0A
1@
1E
0?
1D
1>
1=
0B
1=!
1F!
0W!
04!
0q!
0-!
0*!
0'!
1>!
0p!
1;!
1:!
0G!
0E!
0o!
0C!
0B!
1P!
0n!
1M!
1L!
1K!
1m!
1U!
1T!
0X!
1H!
1?!
1;
1:
08
1@!
09!
1A!
0S!
1I!
0A!
1R!
0J!
1S!
#620000
0!
0R
0S
#630000
1!
1R
1S
1Y!
0Z!
0_!
0[!
0\!
0a!
0]!
0F
0@
0E
0D
0>
0C
1B
03!
0=!
0F!
0O!
1W!
0>!
1p!
0;!
0:!
0P!
1n!
0M!
0L!
0K!
1X!
0Q!
0H!
0?!
07!
0<
0;
0:
09
18
08!
0@!
0I!
0R!
1"!
19!
1A!
1J!
0S!
09!
0A!
0J!
1S!
#640000
0!
0R
0S
#650000
1!
1R
1S
1Z!
1\!
1b!
1A
1E
1C
1=!
1O!
14!
1q!
1-!
1*!
1'!
1Q!
1?!
1;
19
19!
1J!
#660000
0!
0R
0S
#670000
1!
1R
1S
1_!
1a!
1]!
1F
1@
1>
13!
1>!
0p!
1;!
1:!
1P!
0n!
1M!
1L!
1K!
17!
1<
18!
0"!
1@!
09!
1A!
#680000
0!
0R
0S
#690000
1!
1R
1S
0Z!
1`!
0\!
0a!
0b!
0A
0@
0E
1?
0C
0=!
0O!
04!
0q!
0-!
0*!
0'!
0>!
1p!
0;!
0:!
1G!
1E!
1o!
1C!
1B!
0Q!
0?!
0;
09
0@!
19!
0J!
0A!
#700000
0!
0R
0S
#710000
1!
1R
1S
0_!
1[!
0`!
1\!
1a!
0]!
0F
1@
1E
0?
1D
0>
03!
1=!
1F!
1>!
0p!
1;!
1:!
0G!
0E!
0o!
0C!
0B!
0P!
1n!
0M!
0L!
0K!
1H!
1?!
07!
0<
1;
1:
08!
1@!
1"!
09!
1A!
0@!
1I!
19!
0A!
0I!
1A!
1J!
0J!
#720000
0!
0R
0S
#730000
1!
1R
1S
1Z!
0[!
1`!
0\!
1b!
1A
0E
1?
0D
1C
0=!
0F!
1O!
14!
1q!
1-!
1*!
1'!
1G!
1E!
1o!
1C!
1B!
1Q!
0H!
0?!
0;
0:
19
09!
0A!
1J!
#740000
0!
0R
0S
#750000
1!
1R
1S
1_!
1[!
0`!
0a!
1]!
1F
0@
0?
1D
1>
13!
1F!
0>!
1p!
0;!
0:!
0G!
0E!
0o!
0C!
0B!
1P!
0n!
1M!
1L!
1K!
1H!
17!
1<
1:
18!
0"!
1A!
19!
#760000
0!
0R
0S
#770000
1!
1R
1S
0Z!
0[!
1`!
1\!
1a!
0b!
0A
1@
1E
1?
0D
0C
1=!
0F!
0O!
04!
0q!
0-!
0*!
0'!
1>!
0p!
1;!
1:!
1G!
1E!
1o!
1C!
1B!
0Q!
0H!
1?!
1;
0:
09
1@!
09!
0A!
0J!
1A!
#780000
0!
0R
0S
#790000
1!
1R
1S
0_!
1[!
0\!
0a!
0]!
0F
0@
0E
1D
0>
03!
0=!
1F!
0>!
1p!
0;!
0:!
0P!
1n!
0M!
0L!
0K!
1H!
0?!
07!
0<
0;
1:
08!
0@!
1I!
1"!
19!
0A!
0I!
09!
1A!
1J!
0J!
#800000
0!
0R
0S
#810000
1!
1R
1S
1Z!
1\!
1b!
1A
1E
1C
1=!
1O!
14!
1q!
1-!
1*!
1'!
1Q!
1?!
1;
19
19!
1J!
#820000
0!
0R
0S
#830000
1!
1R
1S
1_!
1a!
1]!
1F
1@
1>
13!
1>!
0p!
1;!
1:!
1P!
0n!
1M!
1L!
1K!
17!
1<
18!
0"!
1@!
09!
1I!
0A!
1R!
0J!
0S!
#840000
0!
0R
0S
#850000
1!
1R
1S
0^!
0Z!
0_!
0`!
0\!
0a!
0b!
0A
0@
0E
0?
0>
0C
0=
0=!
0O!
04!
0q!
0-!
0*!
0'!
0>!
1p!
0;!
0:!
0G!
0E!
0o!
0C!
0B!
0P!
1n!
0M!
0L!
0K!
0m!
0U!
0T!
0Q!
0?!
0;
09
0@!
0R!
19!
1J!
0I!
1A!
1S!
0J!
#860000
0!
0R
0S
#870000
1!
1R
1S
0Y!
1^!
1Z!
0[!
1`!
1\!
1a!
0]!
0F
1@
1E
1?
0D
1C
1=
0B
03!
1=!
0F!
1O!
0W!
1>!
0p!
1;!
1:!
1G!
1E!
1o!
1C!
1B!
1m!
1U!
1T!
0X!
1Q!
0H!
1?!
07!
0<
1;
0:
19
08
08!
1@!
1"!
09!
0A!
1J!
0S!
0@!
19!
1A!
0A!
#880000
0!
0R
0S
#890000
1!
1R
1S
1Y!
0^!
1_!
1[!
0`!
0\!
1b!
1A
0E
0?
1D
1>
0=
1B
0=!
1F!
1W!
14!
1q!
1-!
1*!
1'!
0G!
0E!
0o!
0C!
0B!
1P!
0n!
1M!
1L!
1K!
0m!
0U!
0T!
1X!
1H!
0?!
0;
1:
18
09!
1A!
1S!
#900000
0!
0R
0S
#910000
1!
1R
1S
0Y!
1^!
0Z!
0[!
1`!
0a!
1]!
1F
0@
1?
0D
0C
1=
0B
13!
0F!
0O!
0W!
0>!
1p!
0;!
0:!
1G!
1E!
1o!
1C!
1B!
1m!
1U!
1T!
0X!
0Q!
0H!
17!
1<
0:
09
08
18!
0"!
0A!
0J!
0S!
19!
#920000
0!
0R
0S
#930000
1!
1R
1S
1Y!
0^!
0_!
1[!
0`!
1\!
1a!
0b!
0A
1@
1E
0?
1D
0>
0=
1B
1=!
1F!
1W!
04!
0q!
0-!
0*!
0'!
1>!
0p!
1;!
1:!
0G!
0E!
0o!
0C!
0B!
0P!
1n!
0M!
0L!
0K!
0m!
0U!
0T!
1X!
1H!
1?!
1;
1:
18
1@!
09!
1A!
1S!
1I!
0A!
1J!
#940000
0!
0R
0S
#950000
1!
1R
1S
0Y!
1^!
1Z!
1_!
0[!
0\!
0a!
0]!
0F
0@
0E
0D
1>
1C
1=
0B
03!
0=!
0F!
1O!
0W!
0>!
1p!
0;!
0:!
1P!
0n!
1M!
1L!
1K!
1m!
1U!
1T!
0X!
1Q!
0H!
0?!
07!
0<
0;
0:
19
08
08!
0@!
0I!
1R!
1"!
19!
1A!
0J!
0S!
0R!
09!
0A!
1J!
1S!
0S!
#960000
0!
0R
0S
#970000
1!
1R
1S
1Y!
0^!
0Z!
1\!
1b!
1A
1E
0C
0=
1B
1=!
0O!
1W!
14!
1q!
1-!
1*!
1'!
0m!
0U!
0T!
1X!
0Q!
1?!
1;
09
18
19!
0J!
1S!
#980000
0!
0R
0S
#990000
1!
1R
1S
0Y!
1^!
0_!
1a!
1]!
1F
1@
0>
1=
0B
13!
0W!
1>!
0p!
1;!
1:!
0P!
1n!
0M!
0L!
0K!
1m!
1U!
1T!
0X!
17!
1<
08
18!
0"!
0S!
1@!
09!
1A!
